EESchema Schematic File Version 4
EELAYER 30 0
EELAYER END
$Descr USLetter 11000 8500
encoding utf-8
Sheet 2 2
Title "CV Wave Shaper "
Date "2020-07-07"
Rev ""
Comp "Analog Output / Rich Holmes "
Comment1 "Based on Barton 4046 wave shaper, with added CV "
Comment2 ""
Comment3 ""
Comment4 ""
$EndDescr
Connection ~ 2050 6500
Connection ~ 2050 6100
$Comp
L power:-12V #PWR?
U 1 1 5F268101
P 4250 6600
AR Path="/5F1DEF77/5F25E2E1/5F268101" Ref="#PWR?"  Part="1" 
AR Path="/5F1DEF77/5F268101" Ref="#PWR040"  Part="1" 
F 0 "#PWR040" H 4250 6700 50  0001 C CNN
F 1 "-12V" H 4265 6773 50  0000 C CNN
F 2 "" H 4250 6600 50  0001 C CNN
F 3 "" H 4250 6600 50  0001 C CNN
	1    4250 6600
	-1   0    0    1   
$EndComp
$Comp
L power:-12V #PWR?
U 1 1 5F2680FB
P 3300 6500
AR Path="/5F1DEF77/5F25E2E1/5F2680FB" Ref="#PWR?"  Part="1" 
AR Path="/5F1DEF77/5F2680FB" Ref="#PWR033"  Part="1" 
F 0 "#PWR033" H 3300 6600 50  0001 C CNN
F 1 "-12V" H 3315 6673 50  0000 C CNN
F 2 "" H 3300 6500 50  0001 C CNN
F 3 "" H 3300 6500 50  0001 C CNN
	1    3300 6500
	-1   0    0    1   
$EndComp
$Comp
L power:+12V #PWR?
U 1 1 5F2680EF
P 4250 6000
AR Path="/5F1DEF77/5F25E2E1/5F2680EF" Ref="#PWR?"  Part="1" 
AR Path="/5F1DEF77/5F2680EF" Ref="#PWR039"  Part="1" 
F 0 "#PWR039" H 4250 5850 50  0001 C CNN
F 1 "+12V" H 4265 6173 50  0000 C CNN
F 2 "" H 4250 6000 50  0001 C CNN
F 3 "" H 4250 6000 50  0001 C CNN
	1    4250 6000
	1    0    0    -1  
$EndComp
$Comp
L power:+12V #PWR?
U 1 1 5F2680E9
P 3300 6100
AR Path="/5F1DEF77/5F25E2E1/5F2680E9" Ref="#PWR?"  Part="1" 
AR Path="/5F1DEF77/5F2680E9" Ref="#PWR032"  Part="1" 
F 0 "#PWR032" H 3300 5950 50  0001 C CNN
F 1 "+12V" H 3315 6273 50  0000 C CNN
F 2 "" H 3300 6100 50  0001 C CNN
F 3 "" H 3300 6100 50  0001 C CNN
	1    3300 6100
	1    0    0    -1  
$EndComp
$Comp
L power:GND #PWR?
U 1 1 5F2680E3
P 2050 6300
AR Path="/5F1DEF77/5F25E2E1/5F2680E3" Ref="#PWR?"  Part="1" 
AR Path="/5F1DEF77/5F2680E3" Ref="#PWR023"  Part="1" 
F 0 "#PWR023" H 2050 6050 50  0001 C CNN
F 1 "GND" V 2055 6172 50  0000 R CNN
F 2 "" H 2050 6300 50  0001 C CNN
F 3 "" H 2050 6300 50  0001 C CNN
	1    2050 6300
	0    -1   1    0   
$EndComp
$Comp
L power:GND #PWR?
U 1 1 5F2680DD
P 1150 6300
AR Path="/5F1DEF77/5F25E2E1/5F2680DD" Ref="#PWR?"  Part="1" 
AR Path="/5F1DEF77/5F2680DD" Ref="#PWR016"  Part="1" 
F 0 "#PWR016" H 1150 6050 50  0001 C CNN
F 1 "GND" V 1155 6172 50  0000 R CNN
F 2 "" H 1150 6300 50  0001 C CNN
F 3 "" H 1150 6300 50  0001 C CNN
	1    1150 6300
	0    1    1    0   
$EndComp
Wire Wire Line
	2050 6650 2050 6500
Wire Wire Line
	1150 6650 2050 6650
Wire Wire Line
	1150 6500 1150 6650
Wire Wire Line
	2050 5750 2050 6100
Wire Wire Line
	1150 5750 2050 5750
Wire Wire Line
	1150 6100 1150 5750
Wire Wire Line
	2050 6300 2050 6400
Connection ~ 2050 6300
Wire Wire Line
	2050 6200 2050 6300
Wire Wire Line
	1150 6300 1150 6400
Connection ~ 1150 6300
Wire Wire Line
	1150 6200 1150 6300
Wire Wire Line
	2900 6500 3100 6500
Wire Wire Line
	2900 6100 3050 6100
Wire Wire Line
	2050 6500 2600 6500
Wire Wire Line
	2050 6100 2600 6100
Connection ~ 4250 6300
Wire Wire Line
	3950 6300 4250 6300
$Comp
L power:GND #PWR?
U 1 1 5F2680B1
P 3950 6300
AR Path="/5F1DEF77/5F25E2E1/5F2680B1" Ref="#PWR?"  Part="1" 
AR Path="/5F1DEF77/5F2680B1" Ref="#PWR037"  Part="1" 
F 0 "#PWR037" H 3950 6050 50  0001 C CNN
F 1 "GND" H 3955 6127 50  0000 C CNN
F 2 "" H 3950 6300 50  0001 C CNN
F 3 "" H 3950 6300 50  0001 C CNN
	1    3950 6300
	1    0    0    -1  
$EndComp
$Comp
L AO_symbols:CP C?
U 1 1 5F2680AB
P 4250 6450
AR Path="/5F1DEF77/5F25E2E1/5F2680AB" Ref="C?"  Part="1" 
AR Path="/5F1DEF77/5F2680AB" Ref="C8"  Part="1" 
F 0 "C8" H 4368 6496 50  0000 L CNN
F 1 "10uF" H 4368 6405 50  0000 L CNN
F 2 "AO_tht:CP_Radial_D5.0mm_P2.00mm" H 4288 6300 50  0001 C CNN
F 3 "~" H 4250 6450 50  0001 C CNN
F 4 "Tayda" H 4250 6450 50  0001 C CNN "Vendor"
F 5 "A-4349" H 4250 6450 50  0001 C CNN "SKU"
	1    4250 6450
	1    0    0    -1  
$EndComp
$Comp
L AO_symbols:CP C?
U 1 1 5F2680A5
P 4250 6150
AR Path="/5F1DEF77/5F25E2E1/5F2680A5" Ref="C?"  Part="1" 
AR Path="/5F1DEF77/5F2680A5" Ref="C7"  Part="1" 
F 0 "C7" H 4368 6196 50  0000 L CNN
F 1 "10uF" H 4368 6105 50  0000 L CNN
F 2 "AO_tht:CP_Radial_D5.0mm_P2.00mm" H 4288 6000 50  0001 C CNN
F 3 "~" H 4250 6150 50  0001 C CNN
F 4 "Tayda" H 4250 6150 50  0001 C CNN "Vendor"
F 5 "A-4349" H 4250 6150 50  0001 C CNN "SKU"
	1    4250 6150
	1    0    0    -1  
$EndComp
$Comp
L AO_symbols:Synth_power_2x5 J?
U 1 1 5F268093
P 1600 6300
AR Path="/5F1DEF77/5F25E2E1/5F268093" Ref="J?"  Part="1" 
AR Path="/5F1DEF77/5F268093" Ref="J5"  Part="1" 
AR Path="/5F268093" Ref="J?"  Part="1" 
F 0 "J5" H 1600 6747 60  0000 C CNN
F 1 "EURO_PWR_2x5" H 1600 6641 60  0000 C CNN
F 2 "AO_tht:Power_Header" H 1600 6300 60  0001 C CNN
F 3 "" H 1600 6300 60  0001 C CNN
F 4 "A-2939" H 1600 6300 50  0001 C CNN "SKU"
F 5 "Tayda" H 1600 6300 50  0001 C CNN "Vendor"
	1    1600 6300
	1    0    0    -1  
$EndComp
$Comp
L AO_symbols:AudioJack2_SwitchT J?
U 1 1 5FB45279
P 4550 1200
AR Path="/5FB45279" Ref="J?"  Part="1" 
AR Path="/5F1DEF77/5FB45279" Ref="J10"  Part="1" 
F 0 "J10" H 4600 850 50  0000 R CNN
F 1 "AudioJack2_SwitchT" H 4925 950 50  0000 R CNN
F 2 "AO_tht:Jack_6.35mm_PJ_629HAN" H 4550 1200 50  0001 C CNN
F 3 "~" H 4550 1200 50  0001 C CNN
F 4 "A-1121" H 4550 1200 50  0001 C CNN "SKU"
F 5 "Tayda" H 4550 1200 50  0001 C CNN "Vendor"
	1    4550 1200
	1    0    0    1   
$EndComp
$Comp
L AO_symbols:AudioJack2_SwitchT J?
U 1 1 5FB4A784
P 6950 1200
AR Path="/5FB4A784" Ref="J?"  Part="1" 
AR Path="/5F1DEF77/5FB4A784" Ref="J13"  Part="1" 
F 0 "J13" H 7000 850 50  0000 R CNN
F 1 "AudioJack2_SwitchT" H 7325 950 50  0000 R CNN
F 2 "AO_tht:Jack_6.35mm_PJ_629HAN" H 6950 1200 50  0001 C CNN
F 3 "~" H 6950 1200 50  0001 C CNN
F 4 "A-1121" H 6950 1200 50  0001 C CNN "SKU"
F 5 "Tayda" H 6950 1200 50  0001 C CNN "Vendor"
	1    6950 1200
	1    0    0    1   
$EndComp
$Comp
L AO_symbols:AudioJack2_SwitchT J?
U 1 1 5FB4D39B
P 5750 1200
AR Path="/5FB4D39B" Ref="J?"  Part="1" 
AR Path="/5F1DEF77/5FB4D39B" Ref="J12"  Part="1" 
F 0 "J12" H 5800 850 50  0000 R CNN
F 1 "AudioJack2_SwitchT" H 6125 950 50  0000 R CNN
F 2 "AO_tht:Jack_6.35mm_PJ_629HAN" H 5750 1200 50  0001 C CNN
F 3 "~" H 5750 1200 50  0001 C CNN
F 4 "A-1121" H 5750 1200 50  0001 C CNN "SKU"
F 5 "Tayda" H 5750 1200 50  0001 C CNN "Vendor"
	1    5750 1200
	1    0    0    1   
$EndComp
$Comp
L AO_symbols:AudioJack2_SwitchT J?
U 1 1 5FB504B8
P 8150 1200
AR Path="/5FB504B8" Ref="J?"  Part="1" 
AR Path="/5F1DEF77/5FB504B8" Ref="J15"  Part="1" 
F 0 "J15" H 8200 850 50  0000 R CNN
F 1 "AudioJack2_SwitchT" H 8525 950 50  0000 R CNN
F 2 "AO_tht:Jack_6.35mm_PJ_629HAN" H 8150 1200 50  0001 C CNN
F 3 "~" H 8150 1200 50  0001 C CNN
F 4 "A-1121" H 8150 1200 50  0001 C CNN "SKU"
F 5 "Tayda" H 8150 1200 50  0001 C CNN "Vendor"
	1    8150 1200
	1    0    0    1   
$EndComp
$Comp
L AO_symbols:AudioJack2_SwitchT J?
U 1 1 5FB53AD4
P 9350 1200
AR Path="/5FB53AD4" Ref="J?"  Part="1" 
AR Path="/5F1DEF77/5FB53AD4" Ref="J17"  Part="1" 
F 0 "J17" H 9400 850 50  0000 R CNN
F 1 "AudioJack2_SwitchT" H 9725 950 50  0000 R CNN
F 2 "AO_tht:Jack_6.35mm_PJ_629HAN" H 9350 1200 50  0001 C CNN
F 3 "~" H 9350 1200 50  0001 C CNN
F 4 "A-1121" H 9350 1200 50  0001 C CNN "SKU"
F 5 "Tayda" H 9350 1200 50  0001 C CNN "Vendor"
	1    9350 1200
	1    0    0    1   
$EndComp
$Comp
L AO_symbols:AudioJack2_SwitchT J?
U 1 1 5FB56B05
P 3350 1200
AR Path="/5FB56B05" Ref="J?"  Part="1" 
AR Path="/5F1DEF77/5FB56B05" Ref="J9"  Part="1" 
F 0 "J9" H 3400 850 50  0000 R CNN
F 1 "AudioJack2_SwitchT" H 3725 950 50  0000 R CNN
F 2 "AO_tht:Jack_6.35mm_PJ_629HAN" H 3350 1200 50  0001 C CNN
F 3 "~" H 3350 1200 50  0001 C CNN
F 4 "A-1121" H 3350 1200 50  0001 C CNN "SKU"
F 5 "Tayda" H 3350 1200 50  0001 C CNN "Vendor"
	1    3350 1200
	1    0    0    1   
$EndComp
$Comp
L AO_symbols:AudioJack2_SwitchT J?
U 1 1 5FB63BE8
P 2250 1200
AR Path="/5FB63BE8" Ref="J?"  Part="1" 
AR Path="/5F1DEF77/5FB63BE8" Ref="J6"  Part="1" 
F 0 "J6" H 2300 850 50  0000 R CNN
F 1 "AudioJack2_SwitchT" H 2625 950 50  0000 R CNN
F 2 "AO_tht:Jack_6.35mm_PJ_629HAN" H 2250 1200 50  0001 C CNN
F 3 "~" H 2250 1200 50  0001 C CNN
F 4 "A-1121" H 2250 1200 50  0001 C CNN "SKU"
F 5 "Tayda" H 2250 1200 50  0001 C CNN "Vendor"
	1    2250 1200
	1    0    0    1   
$EndComp
$Comp
L AO_symbols:AudioJack2 J?
U 1 1 5FB0D36D
P 1100 1200
AR Path="/5FB0D36D" Ref="J?"  Part="1" 
AR Path="/5F1DEF77/5FB0D36D" Ref="J2"  Part="1" 
F 0 "J2" H 1150 850 50  0000 R CNN
F 1 "AudioJack2" H 1475 950 50  0000 R CNN
F 2 "AO_tht:Jack_6.35mm_PJ_629HAN" H 1100 1200 50  0001 C CNN
F 3 "~" H 1100 1200 50  0001 C CNN
F 4 "A-1121" H 1100 1200 50  0001 C CNN "SKU"
F 5 "Tayda" H 1100 1200 50  0001 C CNN "Vendor"
	1    1100 1200
	1    0    0    1   
$EndComp
$Comp
L AO_symbols:AudioJack2 J?
U 1 1 5FB0DC9B
P 1100 1900
AR Path="/5FB0DC9B" Ref="J?"  Part="1" 
AR Path="/5F1DEF77/5FB0DC9B" Ref="J3"  Part="1" 
F 0 "J3" H 1150 1550 50  0000 R CNN
F 1 "AudioJack2" H 1475 1650 50  0000 R CNN
F 2 "AO_tht:Jack_6.35mm_PJ_629HAN" H 1100 1900 50  0001 C CNN
F 3 "~" H 1100 1900 50  0001 C CNN
F 4 "A-1121" H 1100 1900 50  0001 C CNN "SKU"
F 5 "Tayda" H 1100 1900 50  0001 C CNN "Vendor"
	1    1100 1900
	1    0    0    1   
$EndComp
Wire Notes Line
	600  2800 10300 2800
Wire Notes Line
	10300 650  600  650 
Text Notes 7450 2550 0    100  ~ 0
Jack board components
Wire Notes Line
	600  7850 5950 7850
Wire Notes Line
	5950 7850 5950 6400
Wire Notes Line
	5950 6400 10300 6400
Wire Notes Line
	600  650  600  7850
Text Notes 4250 3250 0    50   ~ 0
Power components are omitted from Barton \nPCB; a 2x5 plain header on the underside \nreplaces the shrouded power  header and \njumpers replace 10R resistors.
$Comp
L Connector_Generic:Conn_02x05_Odd_Even J11
U 1 1 6006C9AA
P 5350 6500
F 0 "J11" H 5400 6917 50  0000 C CNN
F 1 "2x5 pin socket" H 5400 6826 50  0000 C CNN
F 2 "Connector_PinSocket_2.54mm:PinSocket_2x05_P2.54mm_Vertical" H 5350 6500 50  0001 C CNN
F 3 "~" H 5350 6500 50  0001 C CNN
	1    5350 6500
	-1   0    0    1   
$EndComp
$Comp
L power:+12V #PWR?
U 1 1 60082C7A
P 4950 6000
AR Path="/5F1DEF77/5F25E2E1/60082C7A" Ref="#PWR?"  Part="1" 
AR Path="/5F1DEF77/60082C7A" Ref="#PWR043"  Part="1" 
F 0 "#PWR043" H 4950 5850 50  0001 C CNN
F 1 "+12V" H 4965 6173 50  0000 C CNN
F 2 "" H 4950 6000 50  0001 C CNN
F 3 "" H 4950 6000 50  0001 C CNN
	1    4950 6000
	1    0    0    -1  
$EndComp
$Comp
L power:-12V #PWR?
U 1 1 60083030
P 4950 7000
AR Path="/5F1DEF77/5F25E2E1/60083030" Ref="#PWR?"  Part="1" 
AR Path="/5F1DEF77/60083030" Ref="#PWR044"  Part="1" 
F 0 "#PWR044" H 4950 7100 50  0001 C CNN
F 1 "-12V" H 4965 7173 50  0000 C CNN
F 2 "" H 4950 7000 50  0001 C CNN
F 3 "" H 4950 7000 50  0001 C CNN
	1    4950 7000
	-1   0    0    1   
$EndComp
Wire Wire Line
	5050 6400 5050 6500
Connection ~ 5050 6500
Wire Wire Line
	5050 6500 5050 6600
$Comp
L power:GND #PWR?
U 1 1 6008958C
P 5050 6500
AR Path="/5F1DEF77/5F25E2E1/6008958C" Ref="#PWR?"  Part="1" 
AR Path="/5F1DEF77/6008958C" Ref="#PWR046"  Part="1" 
F 0 "#PWR046" H 5050 6250 50  0001 C CNN
F 1 "GND" V 5055 6372 50  0000 R CNN
F 2 "" H 5050 6500 50  0001 C CNN
F 3 "" H 5050 6500 50  0001 C CNN
	1    5050 6500
	0    1    -1   0   
$EndComp
Wire Wire Line
	5050 6300 4950 6300
Wire Wire Line
	4950 6300 4950 6000
Wire Wire Line
	4950 6000 5650 6000
Wire Wire Line
	5650 6000 5650 6300
Wire Wire Line
	5650 6300 5550 6300
Wire Wire Line
	5050 6700 4950 6700
Wire Wire Line
	4950 6700 4950 7000
Wire Wire Line
	4950 7000 5650 7000
Wire Wire Line
	5650 7000 5650 6700
Wire Wire Line
	5650 6700 5550 6700
Connection ~ 4950 6000
Connection ~ 4950 7000
Wire Wire Line
	2450 1200 2800 1200
Wire Wire Line
	3550 1200 3900 1200
Wire Wire Line
	4750 1200 5100 1200
Wire Wire Line
	7150 1200 7500 1200
Wire Wire Line
	8350 1200 8700 1200
Wire Wire Line
	9550 1200 9900 1200
Wire Wire Line
	5550 6400 5550 6500
Wire Wire Line
	5550 6600 5550 6500
Connection ~ 5550 6500
$Comp
L power:GND #PWR?
U 1 1 5F58018A
P 5550 6500
AR Path="/5F1DEF77/5F25E2E1/5F58018A" Ref="#PWR?"  Part="1" 
AR Path="/5F1DEF77/5F58018A" Ref="#PWR048"  Part="1" 
F 0 "#PWR048" H 5550 6250 50  0001 C CNN
F 1 "GND" V 5555 6372 50  0000 R CNN
F 2 "" H 5550 6500 50  0001 C CNN
F 3 "" H 5550 6500 50  0001 C CNN
	1    5550 6500
	0    -1   1    0   
$EndComp
$Comp
L AO_symbols:1N5817 D3
U 1 1 5F6D98F8
P 2750 6500
F 0 "D3" H 2750 6717 50  0000 C CNN
F 1 "1N5817" H 2750 6626 50  0000 C CNN
F 2 "AO_tht:D_DO-41_SOD81_P10.16mm_Horizontal" H 2750 6325 50  0001 C CNN
F 3 "http://www.vishay.com/docs/88525/1n5817.pdf" H 2750 6500 50  0001 C CNN
F 4 "A-159" H 2750 6500 50  0001 C CNN "SKU"
F 5 "Tayda" H 2750 6500 50  0001 C CNN "Vendor"
	1    2750 6500
	1    0    0    -1  
$EndComp
$Comp
L AO_symbols:1N5817 D2
U 1 1 5F6DAC4B
P 2750 6100
F 0 "D2" H 2750 5883 50  0000 C CNN
F 1 "1N5817" H 2750 5974 50  0000 C CNN
F 2 "AO_tht:D_DO-41_SOD81_P10.16mm_Horizontal" H 2750 5925 50  0001 C CNN
F 3 "http://www.vishay.com/docs/88525/1n5817.pdf" H 2750 6100 50  0001 C CNN
F 4 "A-159" H 2750 6100 50  0001 C CNN "SKU"
F 5 "Tayda" H 2750 6100 50  0001 C CNN "Vendor"
	1    2750 6100
	-1   0    0    1   
$EndComp
Wire Wire Line
	2850 2250 2850 2300
Wire Wire Line
	1300 1200 1500 1200
Wire Wire Line
	2950 1900 2950 2300
Wire Wire Line
	2800 1750 3050 1750
Wire Wire Line
	3050 1750 3050 2300
Wire Wire Line
	2800 1200 2800 1750
Wire Wire Line
	3900 1750 3150 1750
Wire Wire Line
	3150 1750 3150 2300
Wire Wire Line
	3900 1200 3900 1750
Wire Wire Line
	5100 1800 3250 1800
Wire Wire Line
	3250 1800 3250 2300
Wire Wire Line
	5100 1200 5100 1800
Wire Wire Line
	3350 1850 3350 2300
Wire Wire Line
	3450 1900 3450 2300
Wire Wire Line
	3550 1950 3550 2300
Wire Wire Line
	8700 1200 8700 1950
Wire Wire Line
	3650 2000 3650 2300
Wire Wire Line
	9900 1200 9900 2000
Wire Wire Line
	2700 3300 2700 3400
$Comp
L power:GND #PWR?
U 1 1 5F831145
P 2700 3400
AR Path="/5F831145" Ref="#PWR?"  Part="1" 
AR Path="/5F1DEF77/5F831145" Ref="#PWR028"  Part="1" 
F 0 "#PWR028" H 2700 3150 50  0001 C CNN
F 1 "GND" H 2705 3227 50  0000 C CNN
F 2 "" H 2700 3400 50  0001 C CNN
F 3 "" H 2700 3400 50  0001 C CNN
	1    2700 3400
	1    0    0    -1  
$EndComp
Wire Wire Line
	1300 1900 1400 1900
Wire Wire Line
	1400 1900 1400 2450
$Comp
L Connector_Generic:Conn_01x09 J7
U 1 1 5F90EFB3
P 3250 2500
F 0 "J7" V 3375 2496 50  0000 C CNN
F 1 "Conn_01x9" V 3450 2600 50  0000 C CNN
F 2 "Connector_PinHeader_2.54mm:PinHeader_1x09_P2.54mm_Vertical" H 3250 2500 50  0001 C CNN
F 3 "~" H 3250 2500 50  0001 C CNN
	1    3250 2500
	0    -1   1    0   
$EndComp
Wire Wire Line
	1500 1200 1500 2450
Wire Wire Line
	8550 5650 8550 5450
Text Label 1300 1900 0    50   ~ 0
OUT
Text Label 1300 1200 0    50   ~ 0
IN
Text Label 2450 1200 0    50   ~ 0
CVIN_+3
Text Label 3550 1200 0    50   ~ 0
CVIN_+2
Text Label 4750 1200 0    50   ~ 0
CVIN_+1
Text Label 5950 1200 0    50   ~ 0
CVIN_0
Text Label 7150 1200 0    50   ~ 0
CVIN_-1
Text Label 8350 1200 0    50   ~ 0
CVIN_-2
Text Label 9550 1200 0    50   ~ 0
CVIN_-3
Text Label 8400 5450 0    50   ~ 0
SLEW
$Comp
L AO_symbols:2_pin_Molex_header J4
U 1 1 5F904528
P 1400 2650
F 0 "J4" V 1272 2462 50  0000 R CNN
F 1 "2_pin_Molex_header" V 1363 2462 50  0000 R CNN
F 2 "AO_tht:Molex_KK-254_AE-6410-02A_1x02_P2.54mm_Vertical" H 1400 2650 50  0001 C CNN
F 3 "~" H 1400 2650 50  0001 C CNN
F 4 "A-804" H 1400 2650 50  0001 C CNN "SKU"
F 5 "Tayda" H 1400 2650 50  0001 C CNN "Vendor"
	1    1400 2650
	0    -1   1    0   
$EndComp
$Comp
L AO_symbols:Graphic GRAF1
U 1 1 611025C9
P 9400 5400
F 0 "GRAF1" H 9678 5446 50  0000 L CNN
F 1 "CC0 logo" H 9678 5355 50  0000 L CNN
F 2 "AO_tht:CC0_logo" H 9400 5400 50  0001 C CNN
F 3 "" H 9400 5400 50  0001 C CNN
F 4 "DNF" H 9400 5400 50  0001 C CNN "Config"
	1    9400 5400
	1    0    0    -1  
$EndComp
$Comp
L power:GND1 #PWR026
U 1 1 6111643C
P 2550 2250
F 0 "#PWR026" H 2550 2000 50  0001 C CNN
F 1 "GND1" H 2555 2077 50  0000 C CNN
F 2 "" H 2550 2250 50  0001 C CNN
F 3 "" H 2550 2250 50  0001 C CNN
	1    2550 2250
	1    0    0    -1  
$EndComp
Connection ~ 2550 2250
Wire Wire Line
	2550 2250 2850 2250
$Comp
L power:PWR_FLAG #FLG02
U 1 1 6115EB42
P 3050 6100
F 0 "#FLG02" H 3050 6175 50  0001 C CNN
F 1 "PWR_FLAG" H 3050 6273 50  0000 C CNN
F 2 "" H 3050 6100 50  0001 C CNN
F 3 "~" H 3050 6100 50  0001 C CNN
	1    3050 6100
	1    0    0    -1  
$EndComp
Connection ~ 3050 6100
Wire Wire Line
	3050 6100 3300 6100
$Comp
L power:PWR_FLAG #FLG03
U 1 1 6115EE65
P 3100 6500
F 0 "#FLG03" H 3100 6575 50  0001 C CNN
F 1 "PWR_FLAG" H 3100 6673 50  0000 C CNN
F 2 "" H 3100 6500 50  0001 C CNN
F 3 "~" H 3100 6500 50  0001 C CNN
	1    3100 6500
	1    0    0    -1  
$EndComp
Connection ~ 3100 6500
Wire Wire Line
	3100 6500 3300 6500
$Comp
L power:PWR_FLAG #FLG01
U 1 1 6115F00C
P 2550 2250
F 0 "#FLG01" H 2550 2325 50  0001 C CNN
F 1 "PWR_FLAG" H 2550 2423 50  0000 C CNN
F 2 "" H 2550 2250 50  0001 C CNN
F 3 "~" H 2550 2250 50  0001 C CNN
	1    2550 2250
	1    0    0    -1  
$EndComp
Wire Wire Line
	7100 3400 7100 4000
Wire Wire Line
	5500 3600 5500 4000
Wire Wire Line
	4750 3700 4750 4000
Wire Wire Line
	3950 3800 3950 4000
Wire Wire Line
	2350 4000 2350 3800
Wire Notes Line
	10300 650  10300 6400
Wire Wire Line
	7100 4300 7100 4350
$Comp
L power:GND #PWR?
U 1 1 5FAEB031
P 7100 4350
AR Path="/5FAEB031" Ref="#PWR?"  Part="1" 
AR Path="/5F1DEF77/5FAEB031" Ref="#PWR053"  Part="1" 
F 0 "#PWR053" H 7100 4100 50  0001 C CNN
F 1 "GND" H 7105 4177 50  0000 C CNN
F 2 "" H 7100 4350 50  0001 C CNN
F 3 "" H 7100 4350 50  0001 C CNN
	1    7100 4350
	1    0    0    -1  
$EndComp
$Comp
L AO_symbols:R_POT RV?
U 1 1 5FAEB01F
P 7100 4150
AR Path="/5FAEB01F" Ref="RV?"  Part="1" 
AR Path="/5F1DEF77/5FAEB01F" Ref="RV8"  Part="1" 
F 0 "RV8" H 7031 4104 50  0000 R CNN
F 1 "B100k" H 7031 4195 50  0000 R CNN
F 2 "AO_tht:Potentiometer_Alpha_RD901F-40-00D_Single_Vertical" H 7100 4150 50  0001 C CNN
F 3 "~" H 7100 4150 50  0001 C CNN
F 4 "A-1848" H 7100 4150 50  0001 C CNN "SKU"
F 5 "Tayda" H 7100 4150 50  0001 C CNN "Vendor"
	1    7100 4150
	1    0    0    1   
$EndComp
$Comp
L power:GND #PWR?
U 1 1 5FAE8C11
P 6300 4350
AR Path="/5FAE8C11" Ref="#PWR?"  Part="1" 
AR Path="/5F1DEF77/5FAE8C11" Ref="#PWR051"  Part="1" 
F 0 "#PWR051" H 6300 4100 50  0001 C CNN
F 1 "GND" H 6305 4177 50  0000 C CNN
F 2 "" H 6300 4350 50  0001 C CNN
F 3 "" H 6300 4350 50  0001 C CNN
	1    6300 4350
	1    0    0    -1  
$EndComp
Wire Wire Line
	5500 4300 5500 4350
$Comp
L power:GND #PWR?
U 1 1 5FAE3F4B
P 5500 4350
AR Path="/5FAE3F4B" Ref="#PWR?"  Part="1" 
AR Path="/5F1DEF77/5FAE3F4B" Ref="#PWR047"  Part="1" 
F 0 "#PWR047" H 5500 4100 50  0001 C CNN
F 1 "GND" H 5505 4177 50  0000 C CNN
F 2 "" H 5500 4350 50  0001 C CNN
F 3 "" H 5500 4350 50  0001 C CNN
	1    5500 4350
	1    0    0    -1  
$EndComp
$Comp
L AO_symbols:R_POT RV?
U 1 1 5FAE3F39
P 5500 4150
AR Path="/5FAE3F39" Ref="RV?"  Part="1" 
AR Path="/5F1DEF77/5FAE3F39" Ref="RV5"  Part="1" 
F 0 "RV5" H 5431 4104 50  0000 R CNN
F 1 "B100k" H 5431 4195 50  0000 R CNN
F 2 "AO_tht:Potentiometer_Alpha_RD901F-40-00D_Single_Vertical" H 5500 4150 50  0001 C CNN
F 3 "~" H 5500 4150 50  0001 C CNN
F 4 "A-1848" H 5500 4150 50  0001 C CNN "SKU"
F 5 "Tayda" H 5500 4150 50  0001 C CNN "Vendor"
	1    5500 4150
	1    0    0    1   
$EndComp
Wire Wire Line
	4750 4300 4750 4350
$Comp
L power:GND #PWR?
U 1 1 5FAE1BE7
P 4750 4350
AR Path="/5FAE1BE7" Ref="#PWR?"  Part="1" 
AR Path="/5F1DEF77/5FAE1BE7" Ref="#PWR041"  Part="1" 
F 0 "#PWR041" H 4750 4100 50  0001 C CNN
F 1 "GND" H 4755 4177 50  0000 C CNN
F 2 "" H 4750 4350 50  0001 C CNN
F 3 "" H 4750 4350 50  0001 C CNN
	1    4750 4350
	1    0    0    -1  
$EndComp
$Comp
L AO_symbols:R_POT RV?
U 1 1 5FAE1BD5
P 4750 4150
AR Path="/5FAE1BD5" Ref="RV?"  Part="1" 
AR Path="/5F1DEF77/5FAE1BD5" Ref="RV4"  Part="1" 
F 0 "RV4" H 4681 4104 50  0000 R CNN
F 1 "B100k" H 4681 4195 50  0000 R CNN
F 2 "AO_tht:Potentiometer_Alpha_RD901F-40-00D_Single_Vertical" H 4750 4150 50  0001 C CNN
F 3 "~" H 4750 4150 50  0001 C CNN
F 4 "A-1848" H 4750 4150 50  0001 C CNN "SKU"
F 5 "Tayda" H 4750 4150 50  0001 C CNN "Vendor"
	1    4750 4150
	1    0    0    1   
$EndComp
Wire Wire Line
	3950 4300 3950 4400
$Comp
L power:GND #PWR?
U 1 1 5FAE0337
P 3950 4400
AR Path="/5FAE0337" Ref="#PWR?"  Part="1" 
AR Path="/5F1DEF77/5FAE0337" Ref="#PWR036"  Part="1" 
F 0 "#PWR036" H 3950 4150 50  0001 C CNN
F 1 "GND" H 3955 4227 50  0000 C CNN
F 2 "" H 3950 4400 50  0001 C CNN
F 3 "" H 3950 4400 50  0001 C CNN
	1    3950 4400
	1    0    0    -1  
$EndComp
$Comp
L AO_symbols:R_POT RV?
U 1 1 5FAE0325
P 3950 4150
AR Path="/5FAE0325" Ref="RV?"  Part="1" 
AR Path="/5F1DEF77/5FAE0325" Ref="RV3"  Part="1" 
F 0 "RV3" H 3881 4104 50  0000 R CNN
F 1 "B100k" H 3881 4195 50  0000 R CNN
F 2 "AO_tht:Potentiometer_Alpha_RD901F-40-00D_Single_Vertical" H 3950 4150 50  0001 C CNN
F 3 "~" H 3950 4150 50  0001 C CNN
F 4 "A-1848" H 3950 4150 50  0001 C CNN "SKU"
F 5 "Tayda" H 3950 4150 50  0001 C CNN "Vendor"
	1    3950 4150
	1    0    0    1   
$EndComp
Wire Wire Line
	3150 4300 3150 4400
$Comp
L power:GND #PWR?
U 1 1 5FADE273
P 3150 4400
AR Path="/5FADE273" Ref="#PWR?"  Part="1" 
AR Path="/5F1DEF77/5FADE273" Ref="#PWR031"  Part="1" 
F 0 "#PWR031" H 3150 4150 50  0001 C CNN
F 1 "GND" H 3155 4227 50  0000 C CNN
F 2 "" H 3150 4400 50  0001 C CNN
F 3 "" H 3150 4400 50  0001 C CNN
	1    3150 4400
	1    0    0    -1  
$EndComp
$Comp
L AO_symbols:R_POT RV?
U 1 1 5FADE261
P 3150 4150
AR Path="/5FADE261" Ref="RV?"  Part="1" 
AR Path="/5F1DEF77/5FADE261" Ref="RV2"  Part="1" 
F 0 "RV2" H 3081 4104 50  0000 R CNN
F 1 "B100k" H 3081 4195 50  0000 R CNN
F 2 "AO_tht:Potentiometer_Alpha_RD901F-40-00D_Single_Vertical" H 3150 4150 50  0001 C CNN
F 3 "~" H 3150 4150 50  0001 C CNN
F 4 "A-1848" H 3150 4150 50  0001 C CNN "SKU"
F 5 "Tayda" H 3150 4150 50  0001 C CNN "Vendor"
	1    3150 4150
	1    0    0    1   
$EndComp
$Comp
L AO_symbols:R_POT RV?
U 1 1 5F206831
P 2350 4150
AR Path="/5F206831" Ref="RV?"  Part="1" 
AR Path="/5F1DEF77/5F206831" Ref="RV1"  Part="1" 
F 0 "RV1" H 2281 4104 50  0000 R CNN
F 1 "B100k" H 2281 4195 50  0000 R CNN
F 2 "AO_tht:Potentiometer_Alpha_RD901F-40-00D_Single_Vertical" H 2350 4150 50  0001 C CNN
F 3 "~" H 2350 4150 50  0001 C CNN
F 4 "A-1848" H 2350 4150 50  0001 C CNN "SKU"
F 5 "Tayda" H 2350 4150 50  0001 C CNN "Vendor"
	1    2350 4150
	1    0    0    1   
$EndComp
$Comp
L power:GND #PWR?
U 1 1 5F2067AC
P 2350 4400
AR Path="/5F2067AC" Ref="#PWR?"  Part="1" 
AR Path="/5F1DEF77/5F2067AC" Ref="#PWR024"  Part="1" 
F 0 "#PWR024" H 2350 4150 50  0001 C CNN
F 1 "GND" H 2355 4227 50  0000 C CNN
F 2 "" H 2350 4400 50  0001 C CNN
F 3 "" H 2350 4400 50  0001 C CNN
	1    2350 4400
	1    0    0    -1  
$EndComp
Wire Wire Line
	2350 4300 2350 4400
Text GLabel 7400 4550 2    50   Output ~ 0
CV_-3
Text GLabel 6600 4550 2    50   Output ~ 0
CV_-2
Text GLabel 5800 4550 2    50   Output ~ 0
CV_-1
Text GLabel 5050 4550 2    50   Output ~ 0
CV_0
Text GLabel 4250 4550 2    50   Output ~ 0
CV_+1
Text GLabel 3450 4550 2    50   Output ~ 0
CV_+2
Text GLabel 2650 4550 2    50   Output ~ 0
CV_+3
Wire Wire Line
	400  6900 350  6900
Wire Wire Line
	8400 5450 8550 5450
Text Label 6800 5750 2    50   ~ 0
LEVEL_CCW
Text Label 6950 5750 0    50   ~ 0
LEVEL_WIPER
Text Notes 6700 6300 0    50   ~ 0
Level pot and slew switch connect to Barton PCB \nvia wires with Molex connectors
Wire Wire Line
	6950 5600 6950 5750
Connection ~ 6950 5600
Text Label 8000 5550 2    50   ~ 0
SL_HIGH
Text Label 8000 5350 2    50   ~ 0
SL_MED
Wire Wire Line
	8150 5650 8550 5650
Wire Wire Line
	8150 5750 8150 5650
Wire Wire Line
	8250 5700 8250 5750
Wire Wire Line
	7900 5700 8250 5700
Wire Wire Line
	7900 5550 7900 5700
Wire Wire Line
	7800 5750 8050 5750
Wire Wire Line
	7800 5350 7800 5750
$Comp
L AO_symbols:3_pin_Molex_header J16
U 1 1 5FAAB8EB
P 8150 5950
F 0 "J16" V 8022 5762 50  0000 R CNN
F 1 "3_pin_Molex_header" V 8113 5762 50  0000 R CNN
F 2 "AO_tht:Molex_KK-254_AE-6410-03A_1x03_P2.54mm_Vertical" H 8150 5950 50  0001 C CNN
F 3 "~" H 8150 5950 50  0001 C CNN
F 4 "A-805" H 8150 5950 50  0001 C CNN "SKU"
F 5 "Tayda" H 8150 5950 50  0001 C CNN "Vendor"
	1    8150 5950
	0    -1   1    0   
$EndComp
Wire Wire Line
	6950 5550 6950 5600
Wire Wire Line
	7100 5600 6950 5600
Wire Wire Line
	7100 5400 7100 5600
Wire Wire Line
	6800 5750 6850 5750
Wire Wire Line
	6800 5400 6800 5750
$Comp
L AO_symbols:2_pin_Molex_header J14
U 1 1 5FA4ED74
P 6950 5950
F 0 "J14" V 6822 5762 50  0000 R CNN
F 1 "2_pin_Molex_header" V 6913 5762 50  0000 R CNN
F 2 "AO_tht:Molex_KK-254_AE-6410-02A_1x02_P2.54mm_Vertical" H 6950 5950 50  0001 C CNN
F 3 "~" H 6950 5950 50  0001 C CNN
F 4 "A-804" H 6950 5950 50  0001 C CNN "SKU"
F 5 "Tayda" H 6950 5950 50  0001 C CNN "Vendor"
	1    6950 5950
	0    1    1    0   
$EndComp
$Comp
L AO_symbols:R_POT RV?
U 1 1 5FA4E2BA
P 6950 5400
AR Path="/5FA4E2BA" Ref="RV?"  Part="1" 
AR Path="/5F1DEF77/5FA4E2BA" Ref="RV7"  Part="1" 
F 0 "RV7" H 6881 5354 50  0000 R CNN
F 1 "A100k" H 6881 5445 50  0000 R CNN
F 2 "AO_tht:Potentiometer_Alpha_RD901F-40-00D_Single_Vertical" H 6950 5400 50  0001 C CNN
F 3 "~" H 6950 5400 50  0001 C CNN
F 4 "A-1855" H 6950 5400 50  0001 C CNN "SKU"
F 5 "Tayda" H 6950 5400 50  0001 C CNN "Vendor"
	1    6950 5400
	0    -1   1    0   
$EndComp
Wire Wire Line
	8000 5350 7800 5350
Wire Wire Line
	8000 5550 7900 5550
$Comp
L AO_symbols:SW_SPDT SW?
U 1 1 5F59635B
P 8200 5450
AR Path="/5F59635B" Ref="SW?"  Part="1" 
AR Path="/5F1DEF77/5F59635B" Ref="SW1"  Part="1" 
F 0 "SW1" H 8200 5735 50  0000 C CNN
F 1 "SW_SPDT" H 8200 5644 50  0000 C CNN
F 2 "AO_tht:SPDT-toggle-switch-1M-series" H 8200 5450 50  0001 C CNN
F 3 "~" H 8200 5450 50  0001 C CNN
F 4 "A-3187" H 8200 5450 50  0001 C CNN "SKU"
F 5 "Tayda" H 8200 5450 50  0001 C CNN "Vendor"
	1    8200 5450
	-1   0    0    -1  
$EndComp
Wire Wire Line
	3650 3400 7100 3400
Wire Wire Line
	3450 3600 5500 3600
Wire Wire Line
	3350 3700 4750 3700
Wire Wire Line
	3250 3800 3950 3800
Wire Wire Line
	2350 3800 3050 3800
Text GLabel 2950 3300 3    50   Input ~ 0
+10V
Wire Wire Line
	6300 4300 6300 4350
Wire Wire Line
	3550 3500 6300 3500
$Comp
L AO_symbols:R_POT RV?
U 1 1 5FAE8BFF
P 6300 4150
AR Path="/5FAE8BFF" Ref="RV?"  Part="1" 
AR Path="/5F1DEF77/5FAE8BFF" Ref="RV6"  Part="1" 
F 0 "RV6" H 6231 4104 50  0000 R CNN
F 1 "B100k" H 6231 4195 50  0000 R CNN
F 2 "AO_tht:Potentiometer_Alpha_RD901F-40-00D_Single_Vertical" H 6300 4150 50  0001 C CNN
F 3 "~" H 6300 4150 50  0001 C CNN
F 4 "A-1848" H 6300 4150 50  0001 C CNN "SKU"
F 5 "Tayda" H 6300 4150 50  0001 C CNN "Vendor"
	1    6300 4150
	1    0    0    1   
$EndComp
Wire Wire Line
	6300 3500 6300 4000
Wire Wire Line
	3650 3300 3650 3400
Wire Wire Line
	3550 3300 3550 3500
Wire Wire Line
	3450 3300 3450 3600
Wire Wire Line
	3350 3300 3350 3700
Wire Wire Line
	3250 3300 3250 3800
Wire Wire Line
	3150 3300 3150 4000
Wire Wire Line
	3050 3300 3050 3800
Wire Wire Line
	2850 3300 2700 3300
$Comp
L Connector_Generic:Conn_01x09 J8
U 1 1 5F97711E
P 3250 3100
F 0 "J8" V 3250 3800 50  0000 C CNN
F 1 "Conn_01x9" V 3150 3800 50  0000 C CNN
F 2 "Connector_PinSocket_2.54mm:PinSocket_1x09_P2.54mm_Vertical" H 3250 3100 50  0001 C CNN
F 3 "~" H 3250 3100 50  0001 C CNN
	1    3250 3100
	0    -1   -1   0   
$EndComp
$Comp
L power:GND #PWR?
U 1 1 6189F90A
P 1200 4650
AR Path="/6189F90A" Ref="#PWR?"  Part="1" 
AR Path="/5F1DEF77/6189F90A" Ref="#PWR018"  Part="1" 
F 0 "#PWR018" H 1200 4400 50  0001 C CNN
F 1 "GND" H 1205 4477 50  0000 C CNN
F 2 "" H 1200 4650 50  0001 C CNN
F 3 "" H 1200 4650 50  0001 C CNN
	1    1200 4650
	1    0    0    -1  
$EndComp
$Comp
L AO_symbols:R R8
U 1 1 618A02A7
P 1200 4000
F 0 "R8" H 1270 4046 50  0000 L CNN
F 1 "1k" H 1270 3955 50  0000 L CNN
F 2 "AO_tht:R_Axial_DIN0207_L6.3mm_D2.5mm_P10.16mm_Horizontal" V 1130 4000 50  0001 C CNN
F 3 "" H 1200 4000 50  0001 C CNN
F 4 "Tayda" H 1200 4000 50  0001 C CNN "Vendor"
	1    1200 4000
	1    0    0    -1  
$EndComp
$Comp
L power:+12V #PWR?
U 1 1 618A0407
P 1200 3750
AR Path="/5F1DEF77/5F25E2E1/618A0407" Ref="#PWR?"  Part="1" 
AR Path="/5F1DEF77/618A0407" Ref="#PWR017"  Part="1" 
AR Path="/618A0407" Ref="#PWR?"  Part="1" 
F 0 "#PWR017" H 1200 3600 50  0001 C CNN
F 1 "+12V" H 1215 3923 50  0000 C CNN
F 2 "" H 1200 3750 50  0001 C CNN
F 3 "" H 1200 3750 50  0001 C CNN
	1    1200 3750
	1    0    0    -1  
$EndComp
Wire Wire Line
	1200 3750 1200 3850
Wire Wire Line
	1200 4550 1200 4650
Wire Wire Line
	1200 4150 1200 4200
Text GLabel 1450 4200 2    50   Output ~ 0
+10V
Wire Wire Line
	1450 4200 1200 4200
Connection ~ 1200 4200
Wire Wire Line
	1200 4200 1200 4250
Text Label 2200 6100 0    50   ~ 0
+12V_IN
Text Label 2200 6500 0    50   ~ 0
-12V_IN
$Comp
L AO_symbols:R R15
U 1 1 61401937
P 7350 4350
F 0 "R15" H 7420 4396 50  0000 L CNN
F 1 "1k" H 7420 4305 50  0000 L CNN
F 2 "AO_tht:R_Axial_DIN0207_L6.3mm_D2.5mm_P10.16mm_Horizontal" V 7280 4350 50  0001 C CNN
F 3 "" H 7350 4350 50  0001 C CNN
F 4 "Tayda" H 7350 4350 50  0001 C CNN "Vendor"
	1    7350 4350
	1    0    0    -1  
$EndComp
$Comp
L AO_symbols:1N5817 D9
U 1 1 61422186
P 7350 4750
F 0 "D9" V 7304 4830 50  0000 L CNN
F 1 "1N5817" V 7395 4830 50  0000 L CNN
F 2 "AO_tht:D_DO-41_SOD81_P10.16mm_Horizontal" H 7350 4575 50  0001 C CNN
F 3 "" H 7350 4750 50  0001 C CNN
F 4 "Tayda" H 7350 4750 50  0001 C CNN "Vendor"
F 5 "A-159" H 7350 4750 50  0001 C CNN "SKU"
	1    7350 4750
	0    1    1    0   
$EndComp
$Comp
L power:GND #PWR?
U 1 1 6145774A
P 7350 4950
AR Path="/6145774A" Ref="#PWR?"  Part="1" 
AR Path="/5F1DEF77/6145774A" Ref="#PWR055"  Part="1" 
F 0 "#PWR055" H 7350 4700 50  0001 C CNN
F 1 "GND" H 7355 4777 50  0000 C CNN
F 2 "" H 7350 4950 50  0001 C CNN
F 3 "" H 7350 4950 50  0001 C CNN
	1    7350 4950
	1    0    0    -1  
$EndComp
Wire Wire Line
	7350 4150 7350 4200
Wire Wire Line
	7250 4150 7350 4150
Wire Wire Line
	7350 4500 7350 4550
Wire Wire Line
	7350 4900 7350 4950
Wire Wire Line
	7400 4550 7350 4550
Connection ~ 7350 4550
Wire Wire Line
	7350 4550 7350 4600
$Comp
L AO_symbols:R R13
U 1 1 61493987
P 5750 4350
F 0 "R13" H 5820 4396 50  0000 L CNN
F 1 "1k" H 5820 4305 50  0000 L CNN
F 2 "AO_tht:R_Axial_DIN0207_L6.3mm_D2.5mm_P10.16mm_Horizontal" V 5680 4350 50  0001 C CNN
F 3 "" H 5750 4350 50  0001 C CNN
F 4 "Tayda" H 5750 4350 50  0001 C CNN "Vendor"
	1    5750 4350
	1    0    0    -1  
$EndComp
$Comp
L AO_symbols:1N5817 D7
U 1 1 6149398F
P 5750 4750
F 0 "D7" V 5704 4830 50  0000 L CNN
F 1 "1N5817" V 5795 4830 50  0000 L CNN
F 2 "AO_tht:D_DO-41_SOD81_P10.16mm_Horizontal" H 5750 4575 50  0001 C CNN
F 3 "" H 5750 4750 50  0001 C CNN
F 4 "Tayda" H 5750 4750 50  0001 C CNN "Vendor"
F 5 "A-159" H 5750 4750 50  0001 C CNN "SKU"
	1    5750 4750
	0    1    1    0   
$EndComp
$Comp
L power:GND #PWR?
U 1 1 61493995
P 5750 4950
AR Path="/61493995" Ref="#PWR?"  Part="1" 
AR Path="/5F1DEF77/61493995" Ref="#PWR049"  Part="1" 
F 0 "#PWR049" H 5750 4700 50  0001 C CNN
F 1 "GND" H 5755 4777 50  0000 C CNN
F 2 "" H 5750 4950 50  0001 C CNN
F 3 "" H 5750 4950 50  0001 C CNN
	1    5750 4950
	1    0    0    -1  
$EndComp
Wire Wire Line
	5750 4150 5750 4200
Wire Wire Line
	5750 4500 5750 4550
Wire Wire Line
	5750 4900 5750 4950
Wire Wire Line
	5800 4550 5750 4550
Connection ~ 5750 4550
Wire Wire Line
	5750 4550 5750 4600
Wire Wire Line
	5650 4150 5750 4150
$Comp
L AO_symbols:R R14
U 1 1 6149FDEC
P 6550 4350
F 0 "R14" H 6620 4396 50  0000 L CNN
F 1 "1k" H 6620 4305 50  0000 L CNN
F 2 "AO_tht:R_Axial_DIN0207_L6.3mm_D2.5mm_P10.16mm_Horizontal" V 6480 4350 50  0001 C CNN
F 3 "" H 6550 4350 50  0001 C CNN
F 4 "Tayda" H 6550 4350 50  0001 C CNN "Vendor"
	1    6550 4350
	1    0    0    -1  
$EndComp
$Comp
L AO_symbols:1N5817 D8
U 1 1 6149FDF4
P 6550 4750
F 0 "D8" V 6504 4830 50  0000 L CNN
F 1 "1N5817" V 6595 4830 50  0000 L CNN
F 2 "AO_tht:D_DO-41_SOD81_P10.16mm_Horizontal" H 6550 4575 50  0001 C CNN
F 3 "" H 6550 4750 50  0001 C CNN
F 4 "Tayda" H 6550 4750 50  0001 C CNN "Vendor"
F 5 "A-159" H 6550 4750 50  0001 C CNN "SKU"
	1    6550 4750
	0    1    1    0   
$EndComp
$Comp
L power:GND #PWR?
U 1 1 6149FDFA
P 6550 4950
AR Path="/6149FDFA" Ref="#PWR?"  Part="1" 
AR Path="/5F1DEF77/6149FDFA" Ref="#PWR052"  Part="1" 
F 0 "#PWR052" H 6550 4700 50  0001 C CNN
F 1 "GND" H 6555 4777 50  0000 C CNN
F 2 "" H 6550 4950 50  0001 C CNN
F 3 "" H 6550 4950 50  0001 C CNN
	1    6550 4950
	1    0    0    -1  
$EndComp
Wire Wire Line
	6550 4150 6550 4200
Wire Wire Line
	6550 4500 6550 4550
Wire Wire Line
	6550 4900 6550 4950
Wire Wire Line
	6600 4550 6550 4550
Connection ~ 6550 4550
Wire Wire Line
	6550 4550 6550 4600
Wire Wire Line
	6450 4150 6550 4150
$Comp
L AO_symbols:R R12
U 1 1 614AC983
P 5000 4350
F 0 "R12" H 5070 4396 50  0000 L CNN
F 1 "1k" H 5070 4305 50  0000 L CNN
F 2 "AO_tht:R_Axial_DIN0207_L6.3mm_D2.5mm_P10.16mm_Horizontal" V 4930 4350 50  0001 C CNN
F 3 "" H 5000 4350 50  0001 C CNN
F 4 "Tayda" H 5000 4350 50  0001 C CNN "Vendor"
	1    5000 4350
	1    0    0    -1  
$EndComp
$Comp
L AO_symbols:1N5817 D6
U 1 1 614AC98B
P 5000 4750
F 0 "D6" V 4954 4830 50  0000 L CNN
F 1 "1N5817" V 5045 4830 50  0000 L CNN
F 2 "AO_tht:D_DO-41_SOD81_P10.16mm_Horizontal" H 5000 4575 50  0001 C CNN
F 3 "" H 5000 4750 50  0001 C CNN
F 4 "Tayda" H 5000 4750 50  0001 C CNN "Vendor"
F 5 "A-159" H 5000 4750 50  0001 C CNN "SKU"
	1    5000 4750
	0    1    1    0   
$EndComp
$Comp
L power:GND #PWR?
U 1 1 614AC991
P 5000 4950
AR Path="/614AC991" Ref="#PWR?"  Part="1" 
AR Path="/5F1DEF77/614AC991" Ref="#PWR045"  Part="1" 
F 0 "#PWR045" H 5000 4700 50  0001 C CNN
F 1 "GND" H 5005 4777 50  0000 C CNN
F 2 "" H 5000 4950 50  0001 C CNN
F 3 "" H 5000 4950 50  0001 C CNN
	1    5000 4950
	1    0    0    -1  
$EndComp
Wire Wire Line
	5000 4150 5000 4200
Wire Wire Line
	5000 4500 5000 4550
Wire Wire Line
	5000 4900 5000 4950
Wire Wire Line
	5050 4550 5000 4550
Connection ~ 5000 4550
Wire Wire Line
	5000 4550 5000 4600
Wire Wire Line
	4900 4150 5000 4150
$Comp
L AO_symbols:R R11
U 1 1 614B996E
P 4200 4350
F 0 "R11" H 4270 4396 50  0000 L CNN
F 1 "1k" H 4270 4305 50  0000 L CNN
F 2 "AO_tht:R_Axial_DIN0207_L6.3mm_D2.5mm_P10.16mm_Horizontal" V 4130 4350 50  0001 C CNN
F 3 "" H 4200 4350 50  0001 C CNN
F 4 "Tayda" H 4200 4350 50  0001 C CNN "Vendor"
	1    4200 4350
	1    0    0    -1  
$EndComp
$Comp
L AO_symbols:1N5817 D5
U 1 1 614B9976
P 4200 4750
F 0 "D5" V 4154 4830 50  0000 L CNN
F 1 "1N5817" V 4245 4830 50  0000 L CNN
F 2 "AO_tht:D_DO-41_SOD81_P10.16mm_Horizontal" H 4200 4575 50  0001 C CNN
F 3 "" H 4200 4750 50  0001 C CNN
F 4 "Tayda" H 4200 4750 50  0001 C CNN "Vendor"
F 5 "A-159" H 4200 4750 50  0001 C CNN "SKU"
	1    4200 4750
	0    1    1    0   
$EndComp
$Comp
L power:GND #PWR?
U 1 1 614B997C
P 4200 4950
AR Path="/614B997C" Ref="#PWR?"  Part="1" 
AR Path="/5F1DEF77/614B997C" Ref="#PWR038"  Part="1" 
F 0 "#PWR038" H 4200 4700 50  0001 C CNN
F 1 "GND" H 4205 4777 50  0000 C CNN
F 2 "" H 4200 4950 50  0001 C CNN
F 3 "" H 4200 4950 50  0001 C CNN
	1    4200 4950
	1    0    0    -1  
$EndComp
Wire Wire Line
	4200 4150 4200 4200
Wire Wire Line
	4200 4500 4200 4550
Wire Wire Line
	4200 4900 4200 4950
Wire Wire Line
	4250 4550 4200 4550
Connection ~ 4200 4550
Wire Wire Line
	4200 4550 4200 4600
Wire Wire Line
	4100 4150 4200 4150
$Comp
L AO_symbols:R R10
U 1 1 614C7421
P 3400 4350
F 0 "R10" H 3470 4396 50  0000 L CNN
F 1 "1k" H 3470 4305 50  0000 L CNN
F 2 "AO_tht:R_Axial_DIN0207_L6.3mm_D2.5mm_P10.16mm_Horizontal" V 3330 4350 50  0001 C CNN
F 3 "" H 3400 4350 50  0001 C CNN
F 4 "Tayda" H 3400 4350 50  0001 C CNN "Vendor"
	1    3400 4350
	1    0    0    -1  
$EndComp
$Comp
L AO_symbols:1N5817 D4
U 1 1 614C7429
P 3400 4750
F 0 "D4" V 3354 4830 50  0000 L CNN
F 1 "1N5817" V 3445 4830 50  0000 L CNN
F 2 "AO_tht:D_DO-41_SOD81_P10.16mm_Horizontal" H 3400 4575 50  0001 C CNN
F 3 "" H 3400 4750 50  0001 C CNN
F 4 "Tayda" H 3400 4750 50  0001 C CNN "Vendor"
F 5 "A-159" H 3400 4750 50  0001 C CNN "SKU"
	1    3400 4750
	0    1    1    0   
$EndComp
$Comp
L power:GND #PWR?
U 1 1 614C742F
P 3400 4950
AR Path="/614C742F" Ref="#PWR?"  Part="1" 
AR Path="/5F1DEF77/614C742F" Ref="#PWR034"  Part="1" 
F 0 "#PWR034" H 3400 4700 50  0001 C CNN
F 1 "GND" H 3405 4777 50  0000 C CNN
F 2 "" H 3400 4950 50  0001 C CNN
F 3 "" H 3400 4950 50  0001 C CNN
	1    3400 4950
	1    0    0    -1  
$EndComp
Wire Wire Line
	3400 4150 3400 4200
Wire Wire Line
	3400 4500 3400 4550
Wire Wire Line
	3400 4900 3400 4950
Wire Wire Line
	3450 4550 3400 4550
Connection ~ 3400 4550
Wire Wire Line
	3400 4550 3400 4600
Wire Wire Line
	3300 4150 3400 4150
$Comp
L AO_symbols:R R9
U 1 1 614D58D0
P 2600 4350
F 0 "R9" H 2670 4396 50  0000 L CNN
F 1 "1k" H 2670 4305 50  0000 L CNN
F 2 "AO_tht:R_Axial_DIN0207_L6.3mm_D2.5mm_P10.16mm_Horizontal" V 2530 4350 50  0001 C CNN
F 3 "" H 2600 4350 50  0001 C CNN
F 4 "Tayda" H 2600 4350 50  0001 C CNN "Vendor"
	1    2600 4350
	1    0    0    -1  
$EndComp
$Comp
L AO_symbols:1N5817 D1
U 1 1 614D58D8
P 2600 4750
F 0 "D1" V 2554 4830 50  0000 L CNN
F 1 "1N5817" V 2645 4830 50  0000 L CNN
F 2 "AO_tht:D_DO-41_SOD81_P10.16mm_Horizontal" H 2600 4575 50  0001 C CNN
F 3 "" H 2600 4750 50  0001 C CNN
F 4 "Tayda" H 2600 4750 50  0001 C CNN "Vendor"
F 5 "A-159" H 2600 4750 50  0001 C CNN "SKU"
	1    2600 4750
	0    1    1    0   
$EndComp
$Comp
L power:GND #PWR?
U 1 1 614D58DE
P 2600 4950
AR Path="/614D58DE" Ref="#PWR?"  Part="1" 
AR Path="/5F1DEF77/614D58DE" Ref="#PWR027"  Part="1" 
F 0 "#PWR027" H 2600 4700 50  0001 C CNN
F 1 "GND" H 2605 4777 50  0000 C CNN
F 2 "" H 2600 4950 50  0001 C CNN
F 3 "" H 2600 4950 50  0001 C CNN
	1    2600 4950
	1    0    0    -1  
$EndComp
Wire Wire Line
	2600 4150 2600 4200
Wire Wire Line
	2600 4500 2600 4550
Wire Wire Line
	2600 4900 2600 4950
Wire Wire Line
	2650 4550 2600 4550
Connection ~ 2600 4550
Wire Wire Line
	2600 4550 2600 4600
Wire Wire Line
	2500 4150 2600 4150
$Comp
L AO_symbols:Graphic GRAF2
U 1 1 6156BE3D
P 9400 5700
F 0 "GRAF2" H 9678 5746 50  0000 L CNN
F 1 "Holes" H 9678 5655 50  0000 L CNN
F 2 "waveshaper:waveshaper-holes" H 9400 5700 50  0001 C CNN
F 3 "" H 9400 5700 50  0001 C CNN
F 4 "DNF" H 9400 5700 50  0001 C CNN "Config"
	1    9400 5700
	1    0    0    -1  
$EndComp
$Comp
L power:GND1 #PWR020
U 1 1 614CCCF2
P 1350 1350
F 0 "#PWR020" H 1350 1100 50  0001 C CNN
F 1 "GND1" H 1355 1177 50  0000 C CNN
F 2 "" H 1350 1350 50  0001 C CNN
F 3 "" H 1350 1350 50  0001 C CNN
	1    1350 1350
	1    0    0    -1  
$EndComp
$Comp
L power:GND1 #PWR019
U 1 1 614CD146
P 1300 2100
F 0 "#PWR019" H 1300 1850 50  0001 C CNN
F 1 "GND1" H 1305 1927 50  0000 C CNN
F 2 "" H 1300 2100 50  0001 C CNN
F 3 "" H 1300 2100 50  0001 C CNN
	1    1300 2100
	1    0    0    -1  
$EndComp
Wire Wire Line
	1300 2100 1300 2000
Wire Wire Line
	1300 1300 1350 1300
Wire Wire Line
	1350 1300 1350 1350
$Comp
L power:GND1 #PWR025
U 1 1 614E8450
P 2550 1400
F 0 "#PWR025" H 2550 1150 50  0001 C CNN
F 1 "GND1" H 2555 1227 50  0000 C CNN
F 2 "" H 2550 1400 50  0001 C CNN
F 3 "" H 2550 1400 50  0001 C CNN
	1    2550 1400
	1    0    0    -1  
$EndComp
$Comp
L power:GND1 #PWR035
U 1 1 614E869F
P 3650 1400
F 0 "#PWR035" H 3650 1150 50  0001 C CNN
F 1 "GND1" H 3655 1227 50  0000 C CNN
F 2 "" H 3650 1400 50  0001 C CNN
F 3 "" H 3650 1400 50  0001 C CNN
	1    3650 1400
	1    0    0    -1  
$EndComp
$Comp
L power:GND1 #PWR042
U 1 1 614E8A75
P 4850 1400
F 0 "#PWR042" H 4850 1150 50  0001 C CNN
F 1 "GND1" H 4855 1227 50  0000 C CNN
F 2 "" H 4850 1400 50  0001 C CNN
F 3 "" H 4850 1400 50  0001 C CNN
	1    4850 1400
	1    0    0    -1  
$EndComp
$Comp
L power:GND1 #PWR050
U 1 1 614E8D73
P 6050 1400
F 0 "#PWR050" H 6050 1150 50  0001 C CNN
F 1 "GND1" H 6055 1227 50  0000 C CNN
F 2 "" H 6050 1400 50  0001 C CNN
F 3 "" H 6050 1400 50  0001 C CNN
	1    6050 1400
	1    0    0    -1  
$EndComp
$Comp
L power:GND1 #PWR054
U 1 1 614E8FC7
P 7250 1400
F 0 "#PWR054" H 7250 1150 50  0001 C CNN
F 1 "GND1" H 7255 1227 50  0000 C CNN
F 2 "" H 7250 1400 50  0001 C CNN
F 3 "" H 7250 1400 50  0001 C CNN
	1    7250 1400
	1    0    0    -1  
$EndComp
$Comp
L power:GND1 #PWR056
U 1 1 6150A2A0
P 8450 1400
F 0 "#PWR056" H 8450 1150 50  0001 C CNN
F 1 "GND1" H 8455 1227 50  0000 C CNN
F 2 "" H 8450 1400 50  0001 C CNN
F 3 "" H 8450 1400 50  0001 C CNN
	1    8450 1400
	1    0    0    -1  
$EndComp
$Comp
L power:GND1 #PWR057
U 1 1 6150A7ED
P 9650 1400
F 0 "#PWR057" H 9650 1150 50  0001 C CNN
F 1 "GND1" H 9655 1227 50  0000 C CNN
F 2 "" H 9650 1400 50  0001 C CNN
F 3 "" H 9650 1400 50  0001 C CNN
	1    9650 1400
	1    0    0    -1  
$EndComp
Wire Wire Line
	7150 1300 7250 1300
Wire Wire Line
	7250 1300 7250 1400
Wire Wire Line
	8350 1300 8450 1300
Wire Wire Line
	8450 1300 8450 1400
Wire Wire Line
	9550 1300 9650 1300
Wire Wire Line
	9650 1300 9650 1400
Text GLabel 2800 1100 2    50   Input ~ 0
J10V
Wire Wire Line
	2800 1100 2450 1100
Wire Wire Line
	2450 1300 2550 1300
Wire Wire Line
	2550 1300 2550 1400
Wire Wire Line
	3550 1300 3650 1300
Wire Wire Line
	3650 1300 3650 1400
Text GLabel 3900 1100 2    50   Input ~ 0
J10V
Wire Wire Line
	3900 1100 3550 1100
Text GLabel 5100 1100 2    50   Input ~ 0
J10V
Text GLabel 6300 1100 2    50   Input ~ 0
J10V
Wire Wire Line
	6300 1100 5950 1100
Wire Wire Line
	5100 1100 4750 1100
Wire Wire Line
	4750 1300 4850 1300
Wire Wire Line
	4850 1300 4850 1400
Wire Wire Line
	5950 1300 6050 1300
Wire Wire Line
	6050 1300 6050 1400
Text GLabel 7500 1100 2    50   Input ~ 0
J10V
Wire Wire Line
	7500 1100 7150 1100
Text GLabel 8700 1100 2    50   Input ~ 0
J10V
Wire Wire Line
	8700 1100 8350 1100
Text GLabel 9900 1100 2    50   Input ~ 0
J10V
Wire Wire Line
	9900 1100 9550 1100
Text GLabel 2650 1900 0    50   Output ~ 0
J10V
Wire Wire Line
	2950 1900 2650 1900
Text Notes 650  800  0    50   ~ 0
In and out jacks connect to Barton PCB  \nvia wires with Molex connectors
Wire Wire Line
	6300 1850 3350 1850
Wire Wire Line
	5950 1200 6300 1200
Wire Wire Line
	6300 1200 6300 1850
Wire Wire Line
	7500 1200 7500 1900
Wire Wire Line
	3450 1900 7500 1900
Wire Wire Line
	3550 1950 8700 1950
Wire Wire Line
	3650 2000 9900 2000
$Comp
L AO_symbols:LM4040DIZ-10.0 U5
U 1 1 6161D9F0
P 1200 4400
F 0 "U5" V 1246 4313 50  0000 R CNN
F 1 "LM4040DIZ-10.0" V 1155 4313 50  0000 R CNN
F 2 "AO_tht:TO-92_Inline_Wide" H 1200 4200 50  0001 C CIN
F 3 "http://www.ti.com/lit/ds/symlink/lm4040-n.pdf" H 1200 4400 50  0001 C CIN
	1    1200 4400
	0    -1   -1   0   
$EndComp
Text Notes 7400 3150 0    100  ~ 0
Pot/switch board components
$EndSCHEMATC
