%TF.GenerationSoftware,KiCad,Pcbnew,5.1.12-84ad8e8a86~92~ubuntu20.04.1*%
%TF.CreationDate,2021-11-13T16:23:56-05:00*%
%TF.ProjectId,waveshaper,77617665-7368-4617-9065-722e6b696361,rev?*%
%TF.SameCoordinates,Original*%
%TF.FileFunction,Profile,NP*%
%FSLAX46Y46*%
G04 Gerber Fmt 4.6, Leading zero omitted, Abs format (unit mm)*
G04 Created by KiCad (PCBNEW 5.1.12-84ad8e8a86~92~ubuntu20.04.1) date 2021-11-13 16:23:56*
%MOMM*%
%LPD*%
G01*
G04 APERTURE LIST*
%TA.AperFunction,Profile*%
%ADD10C,0.050000*%
%TD*%
G04 APERTURE END LIST*
D10*
X179000000Y-19000000D02*
X179000000Y-166000000D01*
X112000000Y-160000000D02*
X112000000Y-19000000D01*
X92000000Y-160000000D02*
X112000000Y-160000000D01*
X92000000Y-171000000D02*
X92000000Y-160000000D01*
X112000000Y-171000000D02*
X92000000Y-171000000D01*
X112000000Y-182000000D02*
X112000000Y-171000000D01*
X144000000Y-182000000D02*
X112000000Y-182000000D01*
X144000000Y-166000000D02*
X144000000Y-182000000D01*
X179000000Y-166000000D02*
X144000000Y-166000000D01*
X112000000Y-19000000D02*
X179000000Y-19000000D01*
M02*
