%TF.GenerationSoftware,KiCad,Pcbnew,5.1.12-84ad8e8a86~92~ubuntu20.04.1*%
%TF.CreationDate,2021-11-13T16:23:56-05:00*%
%TF.ProjectId,waveshaper,77617665-7368-4617-9065-722e6b696361,rev?*%
%TF.SameCoordinates,Original*%
%TF.FileFunction,Legend,Top*%
%TF.FilePolarity,Positive*%
%FSLAX46Y46*%
G04 Gerber Fmt 4.6, Leading zero omitted, Abs format (unit mm)*
G04 Created by KiCad (PCBNEW 5.1.12-84ad8e8a86~92~ubuntu20.04.1) date 2021-11-13 16:23:56*
%MOMM*%
%LPD*%
G01*
G04 APERTURE LIST*
%ADD10C,0.120000*%
%ADD11C,0.150000*%
G04 APERTURE END LIST*
D10*
%TO.C,SW1*%
X94650000Y-162580000D02*
X94660000Y-162580000D01*
X94650000Y-169430000D02*
X94650000Y-162580000D01*
X107340000Y-169430000D02*
X94650000Y-169430000D01*
X107350000Y-162570000D02*
X107350000Y-169430000D01*
X94650000Y-162570000D02*
X107350000Y-162570000D01*
%TO.C,RV8*%
X156030000Y-144130000D02*
X156030000Y-153870000D01*
X167620000Y-144130000D02*
X167620000Y-145620000D01*
X159090000Y-144130000D02*
X156030000Y-144130000D01*
X167620000Y-153880000D02*
X162900000Y-153880000D01*
X159090000Y-153870000D02*
X156030000Y-153870000D01*
X167620000Y-144130000D02*
X162900000Y-144130000D01*
X167620000Y-152690000D02*
X167620000Y-153870000D01*
X167620000Y-149790000D02*
X167620000Y-150320000D01*
X167620000Y-147340000D02*
X167620000Y-148170000D01*
%TO.C,RV6*%
X135970000Y-133870000D02*
X135970000Y-124130000D01*
X124380000Y-133870000D02*
X124380000Y-132380000D01*
X132910000Y-133870000D02*
X135970000Y-133870000D01*
X124380000Y-124120000D02*
X129100000Y-124120000D01*
X132910000Y-124130000D02*
X135970000Y-124130000D01*
X124380000Y-133870000D02*
X129100000Y-133870000D01*
X124380000Y-125310000D02*
X124380000Y-124130000D01*
X124380000Y-128210000D02*
X124380000Y-127680000D01*
X124380000Y-130660000D02*
X124380000Y-129830000D01*
%TO.C,RV5*%
X156030000Y-104130000D02*
X156030000Y-113870000D01*
X167620000Y-104130000D02*
X167620000Y-105620000D01*
X159090000Y-104130000D02*
X156030000Y-104130000D01*
X167620000Y-113880000D02*
X162900000Y-113880000D01*
X159090000Y-113870000D02*
X156030000Y-113870000D01*
X167620000Y-104130000D02*
X162900000Y-104130000D01*
X167620000Y-112690000D02*
X167620000Y-113870000D01*
X167620000Y-109790000D02*
X167620000Y-110320000D01*
X167620000Y-107340000D02*
X167620000Y-108170000D01*
%TO.C,RV4*%
X135970000Y-93870000D02*
X135970000Y-84130000D01*
X124380000Y-93870000D02*
X124380000Y-92380000D01*
X132910000Y-93870000D02*
X135970000Y-93870000D01*
X124380000Y-84120000D02*
X129100000Y-84120000D01*
X132910000Y-84130000D02*
X135970000Y-84130000D01*
X124380000Y-93870000D02*
X129100000Y-93870000D01*
X124380000Y-85310000D02*
X124380000Y-84130000D01*
X124380000Y-88210000D02*
X124380000Y-87680000D01*
X124380000Y-90660000D02*
X124380000Y-89830000D01*
%TO.C,RV3*%
X156030000Y-64130000D02*
X156030000Y-73870000D01*
X167620000Y-64130000D02*
X167620000Y-65620000D01*
X159090000Y-64130000D02*
X156030000Y-64130000D01*
X167620000Y-73880000D02*
X162900000Y-73880000D01*
X159090000Y-73870000D02*
X156030000Y-73870000D01*
X167620000Y-64130000D02*
X162900000Y-64130000D01*
X167620000Y-72690000D02*
X167620000Y-73870000D01*
X167620000Y-69790000D02*
X167620000Y-70320000D01*
X167620000Y-67340000D02*
X167620000Y-68170000D01*
%TO.C,RV7*%
X135970000Y-170870000D02*
X135970000Y-161130000D01*
X124380000Y-170870000D02*
X124380000Y-169380000D01*
X132910000Y-170870000D02*
X135970000Y-170870000D01*
X124380000Y-161120000D02*
X129100000Y-161120000D01*
X132910000Y-161130000D02*
X135970000Y-161130000D01*
X124380000Y-170870000D02*
X129100000Y-170870000D01*
X124380000Y-162310000D02*
X124380000Y-161130000D01*
X124380000Y-165210000D02*
X124380000Y-164680000D01*
X124380000Y-167660000D02*
X124380000Y-166830000D01*
%TO.C,RV2*%
X135970000Y-53870000D02*
X135970000Y-44130000D01*
X124380000Y-53870000D02*
X124380000Y-52380000D01*
X132910000Y-53870000D02*
X135970000Y-53870000D01*
X124380000Y-44120000D02*
X129100000Y-44120000D01*
X132910000Y-44130000D02*
X135970000Y-44130000D01*
X124380000Y-53870000D02*
X129100000Y-53870000D01*
X124380000Y-45310000D02*
X124380000Y-44130000D01*
X124380000Y-48210000D02*
X124380000Y-47680000D01*
X124380000Y-50660000D02*
X124380000Y-49830000D01*
%TO.C,RV1*%
X156030000Y-24130000D02*
X156030000Y-33870000D01*
X167620000Y-24130000D02*
X167620000Y-25620000D01*
X159090000Y-24130000D02*
X156030000Y-24130000D01*
X167620000Y-33880000D02*
X162900000Y-33880000D01*
X159090000Y-33870000D02*
X156030000Y-33870000D01*
X167620000Y-24130000D02*
X162900000Y-24130000D01*
X167620000Y-32690000D02*
X167620000Y-33870000D01*
X167620000Y-29790000D02*
X167620000Y-30320000D01*
X167620000Y-27340000D02*
X167620000Y-28170000D01*
%TO.C,SW1*%
D11*
X93404761Y-167333333D02*
X93452380Y-167190476D01*
X93452380Y-166952380D01*
X93404761Y-166857142D01*
X93357142Y-166809523D01*
X93261904Y-166761904D01*
X93166666Y-166761904D01*
X93071428Y-166809523D01*
X93023809Y-166857142D01*
X92976190Y-166952380D01*
X92928571Y-167142857D01*
X92880952Y-167238095D01*
X92833333Y-167285714D01*
X92738095Y-167333333D01*
X92642857Y-167333333D01*
X92547619Y-167285714D01*
X92500000Y-167238095D01*
X92452380Y-167142857D01*
X92452380Y-166904761D01*
X92500000Y-166761904D01*
X92452380Y-166428571D02*
X93452380Y-166190476D01*
X92738095Y-166000000D01*
X93452380Y-165809523D01*
X92452380Y-165571428D01*
X93452380Y-164666666D02*
X93452380Y-165238095D01*
X93452380Y-164952380D02*
X92452380Y-164952380D01*
X92595238Y-165047619D01*
X92690476Y-165142857D01*
X92738095Y-165238095D01*
%TO.C,RV8*%
X167545571Y-156919285D02*
X167295571Y-156562142D01*
X167117000Y-156919285D02*
X167117000Y-156169285D01*
X167402714Y-156169285D01*
X167474142Y-156205000D01*
X167509857Y-156240714D01*
X167545571Y-156312142D01*
X167545571Y-156419285D01*
X167509857Y-156490714D01*
X167474142Y-156526428D01*
X167402714Y-156562142D01*
X167117000Y-156562142D01*
X167759857Y-156169285D02*
X168009857Y-156919285D01*
X168259857Y-156169285D01*
X168617000Y-156490714D02*
X168545571Y-156455000D01*
X168509857Y-156419285D01*
X168474142Y-156347857D01*
X168474142Y-156312142D01*
X168509857Y-156240714D01*
X168545571Y-156205000D01*
X168617000Y-156169285D01*
X168759857Y-156169285D01*
X168831285Y-156205000D01*
X168867000Y-156240714D01*
X168902714Y-156312142D01*
X168902714Y-156347857D01*
X168867000Y-156419285D01*
X168831285Y-156455000D01*
X168759857Y-156490714D01*
X168617000Y-156490714D01*
X168545571Y-156526428D01*
X168509857Y-156562142D01*
X168474142Y-156633571D01*
X168474142Y-156776428D01*
X168509857Y-156847857D01*
X168545571Y-156883571D01*
X168617000Y-156919285D01*
X168759857Y-156919285D01*
X168831285Y-156883571D01*
X168867000Y-156847857D01*
X168902714Y-156776428D01*
X168902714Y-156633571D01*
X168867000Y-156562142D01*
X168831285Y-156526428D01*
X168759857Y-156490714D01*
X155494571Y-156526428D02*
X155601714Y-156562142D01*
X155637428Y-156597857D01*
X155673142Y-156669285D01*
X155673142Y-156776428D01*
X155637428Y-156847857D01*
X155601714Y-156883571D01*
X155530285Y-156919285D01*
X155244571Y-156919285D01*
X155244571Y-156169285D01*
X155494571Y-156169285D01*
X155566000Y-156205000D01*
X155601714Y-156240714D01*
X155637428Y-156312142D01*
X155637428Y-156383571D01*
X155601714Y-156455000D01*
X155566000Y-156490714D01*
X155494571Y-156526428D01*
X155244571Y-156526428D01*
X156387428Y-156919285D02*
X155958857Y-156919285D01*
X156173142Y-156919285D02*
X156173142Y-156169285D01*
X156101714Y-156276428D01*
X156030285Y-156347857D01*
X155958857Y-156383571D01*
X156851714Y-156169285D02*
X156923142Y-156169285D01*
X156994571Y-156205000D01*
X157030285Y-156240714D01*
X157066000Y-156312142D01*
X157101714Y-156455000D01*
X157101714Y-156633571D01*
X157066000Y-156776428D01*
X157030285Y-156847857D01*
X156994571Y-156883571D01*
X156923142Y-156919285D01*
X156851714Y-156919285D01*
X156780285Y-156883571D01*
X156744571Y-156847857D01*
X156708857Y-156776428D01*
X156673142Y-156633571D01*
X156673142Y-156455000D01*
X156708857Y-156312142D01*
X156744571Y-156240714D01*
X156780285Y-156205000D01*
X156851714Y-156169285D01*
X157566000Y-156169285D02*
X157637428Y-156169285D01*
X157708857Y-156205000D01*
X157744571Y-156240714D01*
X157780285Y-156312142D01*
X157816000Y-156455000D01*
X157816000Y-156633571D01*
X157780285Y-156776428D01*
X157744571Y-156847857D01*
X157708857Y-156883571D01*
X157637428Y-156919285D01*
X157566000Y-156919285D01*
X157494571Y-156883571D01*
X157458857Y-156847857D01*
X157423142Y-156776428D01*
X157387428Y-156633571D01*
X157387428Y-156455000D01*
X157423142Y-156312142D01*
X157458857Y-156240714D01*
X157494571Y-156205000D01*
X157566000Y-156169285D01*
X158137428Y-156919285D02*
X158137428Y-156169285D01*
X158208857Y-156633571D02*
X158423142Y-156919285D01*
X158423142Y-156419285D02*
X158137428Y-156705000D01*
%TO.C,RV6*%
X123561571Y-121759285D02*
X123311571Y-121402142D01*
X123133000Y-121759285D02*
X123133000Y-121009285D01*
X123418714Y-121009285D01*
X123490142Y-121045000D01*
X123525857Y-121080714D01*
X123561571Y-121152142D01*
X123561571Y-121259285D01*
X123525857Y-121330714D01*
X123490142Y-121366428D01*
X123418714Y-121402142D01*
X123133000Y-121402142D01*
X123775857Y-121009285D02*
X124025857Y-121759285D01*
X124275857Y-121009285D01*
X124847285Y-121009285D02*
X124704428Y-121009285D01*
X124633000Y-121045000D01*
X124597285Y-121080714D01*
X124525857Y-121187857D01*
X124490142Y-121330714D01*
X124490142Y-121616428D01*
X124525857Y-121687857D01*
X124561571Y-121723571D01*
X124633000Y-121759285D01*
X124775857Y-121759285D01*
X124847285Y-121723571D01*
X124883000Y-121687857D01*
X124918714Y-121616428D01*
X124918714Y-121437857D01*
X124883000Y-121366428D01*
X124847285Y-121330714D01*
X124775857Y-121295000D01*
X124633000Y-121295000D01*
X124561571Y-121330714D01*
X124525857Y-121366428D01*
X124490142Y-121437857D01*
X133862571Y-121366428D02*
X133969714Y-121402142D01*
X134005428Y-121437857D01*
X134041142Y-121509285D01*
X134041142Y-121616428D01*
X134005428Y-121687857D01*
X133969714Y-121723571D01*
X133898285Y-121759285D01*
X133612571Y-121759285D01*
X133612571Y-121009285D01*
X133862571Y-121009285D01*
X133934000Y-121045000D01*
X133969714Y-121080714D01*
X134005428Y-121152142D01*
X134005428Y-121223571D01*
X133969714Y-121295000D01*
X133934000Y-121330714D01*
X133862571Y-121366428D01*
X133612571Y-121366428D01*
X134755428Y-121759285D02*
X134326857Y-121759285D01*
X134541142Y-121759285D02*
X134541142Y-121009285D01*
X134469714Y-121116428D01*
X134398285Y-121187857D01*
X134326857Y-121223571D01*
X135219714Y-121009285D02*
X135291142Y-121009285D01*
X135362571Y-121045000D01*
X135398285Y-121080714D01*
X135434000Y-121152142D01*
X135469714Y-121295000D01*
X135469714Y-121473571D01*
X135434000Y-121616428D01*
X135398285Y-121687857D01*
X135362571Y-121723571D01*
X135291142Y-121759285D01*
X135219714Y-121759285D01*
X135148285Y-121723571D01*
X135112571Y-121687857D01*
X135076857Y-121616428D01*
X135041142Y-121473571D01*
X135041142Y-121295000D01*
X135076857Y-121152142D01*
X135112571Y-121080714D01*
X135148285Y-121045000D01*
X135219714Y-121009285D01*
X135934000Y-121009285D02*
X136005428Y-121009285D01*
X136076857Y-121045000D01*
X136112571Y-121080714D01*
X136148285Y-121152142D01*
X136184000Y-121295000D01*
X136184000Y-121473571D01*
X136148285Y-121616428D01*
X136112571Y-121687857D01*
X136076857Y-121723571D01*
X136005428Y-121759285D01*
X135934000Y-121759285D01*
X135862571Y-121723571D01*
X135826857Y-121687857D01*
X135791142Y-121616428D01*
X135755428Y-121473571D01*
X135755428Y-121295000D01*
X135791142Y-121152142D01*
X135826857Y-121080714D01*
X135862571Y-121045000D01*
X135934000Y-121009285D01*
X136505428Y-121759285D02*
X136505428Y-121009285D01*
X136576857Y-121473571D02*
X136791142Y-121759285D01*
X136791142Y-121259285D02*
X136505428Y-121545000D01*
%TO.C,RV5*%
X167545571Y-116919285D02*
X167295571Y-116562142D01*
X167117000Y-116919285D02*
X167117000Y-116169285D01*
X167402714Y-116169285D01*
X167474142Y-116205000D01*
X167509857Y-116240714D01*
X167545571Y-116312142D01*
X167545571Y-116419285D01*
X167509857Y-116490714D01*
X167474142Y-116526428D01*
X167402714Y-116562142D01*
X167117000Y-116562142D01*
X167759857Y-116169285D02*
X168009857Y-116919285D01*
X168259857Y-116169285D01*
X168867000Y-116169285D02*
X168509857Y-116169285D01*
X168474142Y-116526428D01*
X168509857Y-116490714D01*
X168581285Y-116455000D01*
X168759857Y-116455000D01*
X168831285Y-116490714D01*
X168867000Y-116526428D01*
X168902714Y-116597857D01*
X168902714Y-116776428D01*
X168867000Y-116847857D01*
X168831285Y-116883571D01*
X168759857Y-116919285D01*
X168581285Y-116919285D01*
X168509857Y-116883571D01*
X168474142Y-116847857D01*
X155494571Y-116526428D02*
X155601714Y-116562142D01*
X155637428Y-116597857D01*
X155673142Y-116669285D01*
X155673142Y-116776428D01*
X155637428Y-116847857D01*
X155601714Y-116883571D01*
X155530285Y-116919285D01*
X155244571Y-116919285D01*
X155244571Y-116169285D01*
X155494571Y-116169285D01*
X155566000Y-116205000D01*
X155601714Y-116240714D01*
X155637428Y-116312142D01*
X155637428Y-116383571D01*
X155601714Y-116455000D01*
X155566000Y-116490714D01*
X155494571Y-116526428D01*
X155244571Y-116526428D01*
X156387428Y-116919285D02*
X155958857Y-116919285D01*
X156173142Y-116919285D02*
X156173142Y-116169285D01*
X156101714Y-116276428D01*
X156030285Y-116347857D01*
X155958857Y-116383571D01*
X156851714Y-116169285D02*
X156923142Y-116169285D01*
X156994571Y-116205000D01*
X157030285Y-116240714D01*
X157066000Y-116312142D01*
X157101714Y-116455000D01*
X157101714Y-116633571D01*
X157066000Y-116776428D01*
X157030285Y-116847857D01*
X156994571Y-116883571D01*
X156923142Y-116919285D01*
X156851714Y-116919285D01*
X156780285Y-116883571D01*
X156744571Y-116847857D01*
X156708857Y-116776428D01*
X156673142Y-116633571D01*
X156673142Y-116455000D01*
X156708857Y-116312142D01*
X156744571Y-116240714D01*
X156780285Y-116205000D01*
X156851714Y-116169285D01*
X157566000Y-116169285D02*
X157637428Y-116169285D01*
X157708857Y-116205000D01*
X157744571Y-116240714D01*
X157780285Y-116312142D01*
X157816000Y-116455000D01*
X157816000Y-116633571D01*
X157780285Y-116776428D01*
X157744571Y-116847857D01*
X157708857Y-116883571D01*
X157637428Y-116919285D01*
X157566000Y-116919285D01*
X157494571Y-116883571D01*
X157458857Y-116847857D01*
X157423142Y-116776428D01*
X157387428Y-116633571D01*
X157387428Y-116455000D01*
X157423142Y-116312142D01*
X157458857Y-116240714D01*
X157494571Y-116205000D01*
X157566000Y-116169285D01*
X158137428Y-116919285D02*
X158137428Y-116169285D01*
X158208857Y-116633571D02*
X158423142Y-116919285D01*
X158423142Y-116419285D02*
X158137428Y-116705000D01*
%TO.C,RV4*%
X123561571Y-81759285D02*
X123311571Y-81402142D01*
X123133000Y-81759285D02*
X123133000Y-81009285D01*
X123418714Y-81009285D01*
X123490142Y-81045000D01*
X123525857Y-81080714D01*
X123561571Y-81152142D01*
X123561571Y-81259285D01*
X123525857Y-81330714D01*
X123490142Y-81366428D01*
X123418714Y-81402142D01*
X123133000Y-81402142D01*
X123775857Y-81009285D02*
X124025857Y-81759285D01*
X124275857Y-81009285D01*
X124847285Y-81259285D02*
X124847285Y-81759285D01*
X124668714Y-80973571D02*
X124490142Y-81509285D01*
X124954428Y-81509285D01*
X133862571Y-81366428D02*
X133969714Y-81402142D01*
X134005428Y-81437857D01*
X134041142Y-81509285D01*
X134041142Y-81616428D01*
X134005428Y-81687857D01*
X133969714Y-81723571D01*
X133898285Y-81759285D01*
X133612571Y-81759285D01*
X133612571Y-81009285D01*
X133862571Y-81009285D01*
X133934000Y-81045000D01*
X133969714Y-81080714D01*
X134005428Y-81152142D01*
X134005428Y-81223571D01*
X133969714Y-81295000D01*
X133934000Y-81330714D01*
X133862571Y-81366428D01*
X133612571Y-81366428D01*
X134755428Y-81759285D02*
X134326857Y-81759285D01*
X134541142Y-81759285D02*
X134541142Y-81009285D01*
X134469714Y-81116428D01*
X134398285Y-81187857D01*
X134326857Y-81223571D01*
X135219714Y-81009285D02*
X135291142Y-81009285D01*
X135362571Y-81045000D01*
X135398285Y-81080714D01*
X135434000Y-81152142D01*
X135469714Y-81295000D01*
X135469714Y-81473571D01*
X135434000Y-81616428D01*
X135398285Y-81687857D01*
X135362571Y-81723571D01*
X135291142Y-81759285D01*
X135219714Y-81759285D01*
X135148285Y-81723571D01*
X135112571Y-81687857D01*
X135076857Y-81616428D01*
X135041142Y-81473571D01*
X135041142Y-81295000D01*
X135076857Y-81152142D01*
X135112571Y-81080714D01*
X135148285Y-81045000D01*
X135219714Y-81009285D01*
X135934000Y-81009285D02*
X136005428Y-81009285D01*
X136076857Y-81045000D01*
X136112571Y-81080714D01*
X136148285Y-81152142D01*
X136184000Y-81295000D01*
X136184000Y-81473571D01*
X136148285Y-81616428D01*
X136112571Y-81687857D01*
X136076857Y-81723571D01*
X136005428Y-81759285D01*
X135934000Y-81759285D01*
X135862571Y-81723571D01*
X135826857Y-81687857D01*
X135791142Y-81616428D01*
X135755428Y-81473571D01*
X135755428Y-81295000D01*
X135791142Y-81152142D01*
X135826857Y-81080714D01*
X135862571Y-81045000D01*
X135934000Y-81009285D01*
X136505428Y-81759285D02*
X136505428Y-81009285D01*
X136576857Y-81473571D02*
X136791142Y-81759285D01*
X136791142Y-81259285D02*
X136505428Y-81545000D01*
%TO.C,RV3*%
X167545571Y-76919285D02*
X167295571Y-76562142D01*
X167117000Y-76919285D02*
X167117000Y-76169285D01*
X167402714Y-76169285D01*
X167474142Y-76205000D01*
X167509857Y-76240714D01*
X167545571Y-76312142D01*
X167545571Y-76419285D01*
X167509857Y-76490714D01*
X167474142Y-76526428D01*
X167402714Y-76562142D01*
X167117000Y-76562142D01*
X167759857Y-76169285D02*
X168009857Y-76919285D01*
X168259857Y-76169285D01*
X168438428Y-76169285D02*
X168902714Y-76169285D01*
X168652714Y-76455000D01*
X168759857Y-76455000D01*
X168831285Y-76490714D01*
X168867000Y-76526428D01*
X168902714Y-76597857D01*
X168902714Y-76776428D01*
X168867000Y-76847857D01*
X168831285Y-76883571D01*
X168759857Y-76919285D01*
X168545571Y-76919285D01*
X168474142Y-76883571D01*
X168438428Y-76847857D01*
X155494571Y-76526428D02*
X155601714Y-76562142D01*
X155637428Y-76597857D01*
X155673142Y-76669285D01*
X155673142Y-76776428D01*
X155637428Y-76847857D01*
X155601714Y-76883571D01*
X155530285Y-76919285D01*
X155244571Y-76919285D01*
X155244571Y-76169285D01*
X155494571Y-76169285D01*
X155566000Y-76205000D01*
X155601714Y-76240714D01*
X155637428Y-76312142D01*
X155637428Y-76383571D01*
X155601714Y-76455000D01*
X155566000Y-76490714D01*
X155494571Y-76526428D01*
X155244571Y-76526428D01*
X156387428Y-76919285D02*
X155958857Y-76919285D01*
X156173142Y-76919285D02*
X156173142Y-76169285D01*
X156101714Y-76276428D01*
X156030285Y-76347857D01*
X155958857Y-76383571D01*
X156851714Y-76169285D02*
X156923142Y-76169285D01*
X156994571Y-76205000D01*
X157030285Y-76240714D01*
X157066000Y-76312142D01*
X157101714Y-76455000D01*
X157101714Y-76633571D01*
X157066000Y-76776428D01*
X157030285Y-76847857D01*
X156994571Y-76883571D01*
X156923142Y-76919285D01*
X156851714Y-76919285D01*
X156780285Y-76883571D01*
X156744571Y-76847857D01*
X156708857Y-76776428D01*
X156673142Y-76633571D01*
X156673142Y-76455000D01*
X156708857Y-76312142D01*
X156744571Y-76240714D01*
X156780285Y-76205000D01*
X156851714Y-76169285D01*
X157566000Y-76169285D02*
X157637428Y-76169285D01*
X157708857Y-76205000D01*
X157744571Y-76240714D01*
X157780285Y-76312142D01*
X157816000Y-76455000D01*
X157816000Y-76633571D01*
X157780285Y-76776428D01*
X157744571Y-76847857D01*
X157708857Y-76883571D01*
X157637428Y-76919285D01*
X157566000Y-76919285D01*
X157494571Y-76883571D01*
X157458857Y-76847857D01*
X157423142Y-76776428D01*
X157387428Y-76633571D01*
X157387428Y-76455000D01*
X157423142Y-76312142D01*
X157458857Y-76240714D01*
X157494571Y-76205000D01*
X157566000Y-76169285D01*
X158137428Y-76919285D02*
X158137428Y-76169285D01*
X158208857Y-76633571D02*
X158423142Y-76919285D01*
X158423142Y-76419285D02*
X158137428Y-76705000D01*
%TO.C,RV7*%
X123561571Y-158759285D02*
X123311571Y-158402142D01*
X123133000Y-158759285D02*
X123133000Y-158009285D01*
X123418714Y-158009285D01*
X123490142Y-158045000D01*
X123525857Y-158080714D01*
X123561571Y-158152142D01*
X123561571Y-158259285D01*
X123525857Y-158330714D01*
X123490142Y-158366428D01*
X123418714Y-158402142D01*
X123133000Y-158402142D01*
X123775857Y-158009285D02*
X124025857Y-158759285D01*
X124275857Y-158009285D01*
X124454428Y-158009285D02*
X124954428Y-158009285D01*
X124633000Y-158759285D01*
X133630428Y-158545000D02*
X133987571Y-158545000D01*
X133559000Y-158759285D02*
X133809000Y-158009285D01*
X134059000Y-158759285D01*
X134701857Y-158759285D02*
X134273285Y-158759285D01*
X134487571Y-158759285D02*
X134487571Y-158009285D01*
X134416142Y-158116428D01*
X134344714Y-158187857D01*
X134273285Y-158223571D01*
X135166142Y-158009285D02*
X135237571Y-158009285D01*
X135309000Y-158045000D01*
X135344714Y-158080714D01*
X135380428Y-158152142D01*
X135416142Y-158295000D01*
X135416142Y-158473571D01*
X135380428Y-158616428D01*
X135344714Y-158687857D01*
X135309000Y-158723571D01*
X135237571Y-158759285D01*
X135166142Y-158759285D01*
X135094714Y-158723571D01*
X135059000Y-158687857D01*
X135023285Y-158616428D01*
X134987571Y-158473571D01*
X134987571Y-158295000D01*
X135023285Y-158152142D01*
X135059000Y-158080714D01*
X135094714Y-158045000D01*
X135166142Y-158009285D01*
X135880428Y-158009285D02*
X135951857Y-158009285D01*
X136023285Y-158045000D01*
X136059000Y-158080714D01*
X136094714Y-158152142D01*
X136130428Y-158295000D01*
X136130428Y-158473571D01*
X136094714Y-158616428D01*
X136059000Y-158687857D01*
X136023285Y-158723571D01*
X135951857Y-158759285D01*
X135880428Y-158759285D01*
X135809000Y-158723571D01*
X135773285Y-158687857D01*
X135737571Y-158616428D01*
X135701857Y-158473571D01*
X135701857Y-158295000D01*
X135737571Y-158152142D01*
X135773285Y-158080714D01*
X135809000Y-158045000D01*
X135880428Y-158009285D01*
X136451857Y-158759285D02*
X136451857Y-158009285D01*
X136523285Y-158473571D02*
X136737571Y-158759285D01*
X136737571Y-158259285D02*
X136451857Y-158545000D01*
%TO.C,RV2*%
X123561571Y-41759285D02*
X123311571Y-41402142D01*
X123133000Y-41759285D02*
X123133000Y-41009285D01*
X123418714Y-41009285D01*
X123490142Y-41045000D01*
X123525857Y-41080714D01*
X123561571Y-41152142D01*
X123561571Y-41259285D01*
X123525857Y-41330714D01*
X123490142Y-41366428D01*
X123418714Y-41402142D01*
X123133000Y-41402142D01*
X123775857Y-41009285D02*
X124025857Y-41759285D01*
X124275857Y-41009285D01*
X124490142Y-41080714D02*
X124525857Y-41045000D01*
X124597285Y-41009285D01*
X124775857Y-41009285D01*
X124847285Y-41045000D01*
X124883000Y-41080714D01*
X124918714Y-41152142D01*
X124918714Y-41223571D01*
X124883000Y-41330714D01*
X124454428Y-41759285D01*
X124918714Y-41759285D01*
X133862571Y-41366428D02*
X133969714Y-41402142D01*
X134005428Y-41437857D01*
X134041142Y-41509285D01*
X134041142Y-41616428D01*
X134005428Y-41687857D01*
X133969714Y-41723571D01*
X133898285Y-41759285D01*
X133612571Y-41759285D01*
X133612571Y-41009285D01*
X133862571Y-41009285D01*
X133934000Y-41045000D01*
X133969714Y-41080714D01*
X134005428Y-41152142D01*
X134005428Y-41223571D01*
X133969714Y-41295000D01*
X133934000Y-41330714D01*
X133862571Y-41366428D01*
X133612571Y-41366428D01*
X134755428Y-41759285D02*
X134326857Y-41759285D01*
X134541142Y-41759285D02*
X134541142Y-41009285D01*
X134469714Y-41116428D01*
X134398285Y-41187857D01*
X134326857Y-41223571D01*
X135219714Y-41009285D02*
X135291142Y-41009285D01*
X135362571Y-41045000D01*
X135398285Y-41080714D01*
X135434000Y-41152142D01*
X135469714Y-41295000D01*
X135469714Y-41473571D01*
X135434000Y-41616428D01*
X135398285Y-41687857D01*
X135362571Y-41723571D01*
X135291142Y-41759285D01*
X135219714Y-41759285D01*
X135148285Y-41723571D01*
X135112571Y-41687857D01*
X135076857Y-41616428D01*
X135041142Y-41473571D01*
X135041142Y-41295000D01*
X135076857Y-41152142D01*
X135112571Y-41080714D01*
X135148285Y-41045000D01*
X135219714Y-41009285D01*
X135934000Y-41009285D02*
X136005428Y-41009285D01*
X136076857Y-41045000D01*
X136112571Y-41080714D01*
X136148285Y-41152142D01*
X136184000Y-41295000D01*
X136184000Y-41473571D01*
X136148285Y-41616428D01*
X136112571Y-41687857D01*
X136076857Y-41723571D01*
X136005428Y-41759285D01*
X135934000Y-41759285D01*
X135862571Y-41723571D01*
X135826857Y-41687857D01*
X135791142Y-41616428D01*
X135755428Y-41473571D01*
X135755428Y-41295000D01*
X135791142Y-41152142D01*
X135826857Y-41080714D01*
X135862571Y-41045000D01*
X135934000Y-41009285D01*
X136505428Y-41759285D02*
X136505428Y-41009285D01*
X136576857Y-41473571D02*
X136791142Y-41759285D01*
X136791142Y-41259285D02*
X136505428Y-41545000D01*
%TO.C,RV1*%
X167545571Y-36919285D02*
X167295571Y-36562142D01*
X167117000Y-36919285D02*
X167117000Y-36169285D01*
X167402714Y-36169285D01*
X167474142Y-36205000D01*
X167509857Y-36240714D01*
X167545571Y-36312142D01*
X167545571Y-36419285D01*
X167509857Y-36490714D01*
X167474142Y-36526428D01*
X167402714Y-36562142D01*
X167117000Y-36562142D01*
X167759857Y-36169285D02*
X168009857Y-36919285D01*
X168259857Y-36169285D01*
X168902714Y-36919285D02*
X168474142Y-36919285D01*
X168688428Y-36919285D02*
X168688428Y-36169285D01*
X168617000Y-36276428D01*
X168545571Y-36347857D01*
X168474142Y-36383571D01*
X155494571Y-36526428D02*
X155601714Y-36562142D01*
X155637428Y-36597857D01*
X155673142Y-36669285D01*
X155673142Y-36776428D01*
X155637428Y-36847857D01*
X155601714Y-36883571D01*
X155530285Y-36919285D01*
X155244571Y-36919285D01*
X155244571Y-36169285D01*
X155494571Y-36169285D01*
X155566000Y-36205000D01*
X155601714Y-36240714D01*
X155637428Y-36312142D01*
X155637428Y-36383571D01*
X155601714Y-36455000D01*
X155566000Y-36490714D01*
X155494571Y-36526428D01*
X155244571Y-36526428D01*
X156387428Y-36919285D02*
X155958857Y-36919285D01*
X156173142Y-36919285D02*
X156173142Y-36169285D01*
X156101714Y-36276428D01*
X156030285Y-36347857D01*
X155958857Y-36383571D01*
X156851714Y-36169285D02*
X156923142Y-36169285D01*
X156994571Y-36205000D01*
X157030285Y-36240714D01*
X157066000Y-36312142D01*
X157101714Y-36455000D01*
X157101714Y-36633571D01*
X157066000Y-36776428D01*
X157030285Y-36847857D01*
X156994571Y-36883571D01*
X156923142Y-36919285D01*
X156851714Y-36919285D01*
X156780285Y-36883571D01*
X156744571Y-36847857D01*
X156708857Y-36776428D01*
X156673142Y-36633571D01*
X156673142Y-36455000D01*
X156708857Y-36312142D01*
X156744571Y-36240714D01*
X156780285Y-36205000D01*
X156851714Y-36169285D01*
X157566000Y-36169285D02*
X157637428Y-36169285D01*
X157708857Y-36205000D01*
X157744571Y-36240714D01*
X157780285Y-36312142D01*
X157816000Y-36455000D01*
X157816000Y-36633571D01*
X157780285Y-36776428D01*
X157744571Y-36847857D01*
X157708857Y-36883571D01*
X157637428Y-36919285D01*
X157566000Y-36919285D01*
X157494571Y-36883571D01*
X157458857Y-36847857D01*
X157423142Y-36776428D01*
X157387428Y-36633571D01*
X157387428Y-36455000D01*
X157423142Y-36312142D01*
X157458857Y-36240714D01*
X157494571Y-36205000D01*
X157566000Y-36169285D01*
X158137428Y-36919285D02*
X158137428Y-36169285D01*
X158208857Y-36633571D02*
X158423142Y-36919285D01*
X158423142Y-36419285D02*
X158137428Y-36705000D01*
%TD*%
M02*
